[{"id":"61c435b8-60f4-4666-b1f7-b7ddeaf5830e","name":"Passat","price":1193.53,"city":"Shenwan"},
{"id":"21576a97-8459-4fd5-a8d0-2046491478fc","name":"Intrigue","price":1002.07,"city":"Jingcheng"},
{"id":"95337f60-5ed0-49b4-9b2d-9b920150d990","name":"Q","price":1182.91,"city":"Barreiro"},
{"id":"fe24c58d-61ae-485f-81b0-dc07af912665","name":"Clubman","price":907.4,"city":"Bilje"},
{"id":"5eab8f50-2256-4616-8706-ba7f31f4aef9","name":"SL-Class","price":1011.04,"city":"Huanuni"},
{"id":"cbcbccb3-2abf-499a-bcc3-cab07b094a7b","name":"Outlander","price":1026.55,"city":"Lamalera"},
{"id":"d8d4b5a8-3ac3-43d7-a311-cf2d6bc889e4","name":"Diamante","price":1110.53,"city":"Kongjiang"},
{"id":"01baacb7-44d8-450a-9526-f7591e710cc1","name":"RX","price":523.43,"city":"Natakoli"},
{"id":"f186e6ca-ca76-4914-a3c7-fdb23be6fe68","name":"H2 SUT","price":1182.76,"city":"Kcynia"},
{"id":"26b84050-dfcc-4a93-a1c3-24b008f7b9b7","name":"D250 Club","price":858.92,"city":"Zhemtala"},
{"id":"6dc83f17-1817-4a78-8c33-0fabfc044f4f","name":"DeVille","price":980.26,"city":"Khvānsār"},
{"id":"a2febd41-7fa6-40b6-a375-ce75fc8e5a85","name":"Firebird","price":1082.46,"city":"Chvaletice"},
{"id":"dff624dd-f5c1-4f7e-80bc-3df64943f0df","name":"Suburban","price":1185.51,"city":"Hongjiaguan"},
{"id":"e27c57bc-fe72-49fe-a058-76801be39d26","name":"SL-Class","price":1211.84,"city":"Nevel’sk"},
{"id":"842022fc-2e2e-42a5-88d0-73af5dea63e8","name":"Grand Am","price":850.62,"city":"Gaotaizi"},
{"id":"20b5af45-cc04-44a8-acd5-ce8e9e71bb84","name":"Murano","price":1123.95,"city":"Quince Mil"},
{"id":"83bf2928-5f01-4469-88be-858cd6d9a1ad","name":"S10","price":1267.2,"city":"Qijing"},
{"id":"d5eaf98f-eb03-4603-b621-ce8e7bb37840","name":"Escape","price":1496.81,"city":"Youshan"},
{"id":"a8fb200c-81ae-4907-969d-7abee3893335","name":"Mirage","price":1403.49,"city":"Maltahöhe"},
{"id":"3048a02f-b8c8-4501-91d3-bd4fba616cda","name":"Highlander Hybrid","price":955.89,"city":"Krikil"},
{"id":"8011768f-02fa-410f-b607-464ecfac3710","name":"330","price":1101.79,"city":"Chaowai"},
{"id":"5d105f43-1096-4be4-b497-91503517b120","name":"Impala","price":1211.59,"city":"Roblin"},
{"id":"495f1dcc-6a10-473b-a812-1deee0d093b9","name":"Cruze","price":1156.9,"city":"Ayaviri"},
{"id":"25f07f4a-a594-4ee0-b409-bb1af3cf8c1c","name":"Ram Van 1500","price":941.57,"city":"Fengyi"},
{"id":"34003f9a-e1c0-439a-b6a5-bf5b78e432ab","name":"V50","price":960.52,"city":"Urho"},
{"id":"646b1f3e-14ef-48a8-88ff-d0975dee2e5c","name":"F-Series","price":1311.76,"city":"Pecoro"},
{"id":"b6eed950-520c-4b32-9d3f-dbcb74e33e1d","name":"Regal","price":1107.48,"city":"Perbaungan"},
{"id":"f6819cc0-8010-4da9-83f3-2d90626838eb","name":"A8","price":823.17,"city":"Montesson"},
{"id":"bfc8edfd-8c8e-477b-bf40-19ee0b8fa2a7","name":"C-Class","price":956.27,"city":"El Hajeb"},
{"id":"2ae050e9-c8e6-4ece-8383-79fef02b631e","name":"Esprit","price":1046.6,"city":"Honglu"},
{"id":"fd54a1aa-9eb1-4cc9-b774-0ae2372db7bb","name":"XC70","price":677.27,"city":"Turpo"},
{"id":"a269dece-830f-47e8-9868-e52cb84c41f5","name":"6000","price":1066.69,"city":"Duvergé"},
{"id":"0eb154f3-048e-4aa7-9904-59d498a66911","name":"Regal","price":612.66,"city":"Al Khafsah"},
{"id":"07745c82-f453-48fe-9c22-3db25d680aeb","name":"Exige","price":845.79,"city":"Gigant"},
{"id":"c908586e-4786-40f6-800a-ebedf6344d62","name":"Touareg","price":1024.86,"city":"Jocón"},
{"id":"8d1a5e52-868e-4946-90f5-a415717a1346","name":"RAV4","price":1134.4,"city":"Cennan"},
{"id":"4a121cde-abb8-462c-843d-eb9f7c79fa0b","name":"Sienna","price":1464.65,"city":"Taling Chan"},
{"id":"d4730224-b5fb-4283-80a4-fc01ff610c4a","name":"rio","price":920.05,"city":"Curuan"},
{"id":"b185cdeb-7889-4801-8788-d1a2ea143770","name":"Ciera","price":836.42,"city":"Douentza"},
{"id":"3fa5b04b-66ea-44d0-80aa-8cfa3bdd881a","name":"626","price":1041.31,"city":"Árgos"},
{"id":"12073a38-7b02-4335-bb20-7d983cb9bd09","name":"Quest","price":787.49,"city":"Axili"},
{"id":"4dc5d862-1d60-4849-879a-1d614a02cf25","name":"Suburban 2500","price":1339.66,"city":"Riyue"},
{"id":"61dbc3ca-1ee0-41dc-bc2f-fba78b48a5c6","name":"Sunbird","price":1286.25,"city":"Sumberjati"},
{"id":"517c4094-f1a9-41bb-8475-9b9319e5ad6f","name":"350Z","price":947.96,"city":"Pacucha"},
{"id":"c31b73d7-bd2b-4191-bc5b-7bbbfa8274cf","name":"626","price":980.1,"city":"Kuhmo"},
{"id":"1dd35e0c-b6bd-43d7-b3ae-f1e627330e2b","name":"Ipsum","price":1098.83,"city":"Ban Phai"},
{"id":"a1e243b1-9b2f-49d6-b717-7a0785b761a7","name":"Cougar","price":1109.76,"city":"Hajnówka"},
{"id":"0826206d-4525-4012-8059-a4cc7f2c0c8b","name":"Bonneville","price":1003.04,"city":"Porto Velho"},
{"id":"d38fb3f3-7a2a-4d8c-9302-a1bedf095712","name":"Century","price":799.49,"city":"Harstad"},
{"id":"aee5e960-4bc1-4296-853c-7a9603024094","name":"525","price":1167.16,"city":"Teresa"},
{"id":"3c099dd6-7755-4832-ae3e-bd78a46fa98f","name":"Aerostar","price":824.6,"city":"Ludvika"},
{"id":"5cbd0b73-df69-4afe-9951-ba57c378558f","name":"Tucson","price":1058.63,"city":"Yanwukou"},
{"id":"98fdb062-6a06-43f1-914f-b0760b5062d5","name":"Colt","price":1129.3,"city":"Qanliko’l"},
{"id":"f1d6909e-69e0-45f8-b05a-382116a9eb68","name":"Nitro","price":928.14,"city":"Doghs"},
{"id":"60023891-fb4d-4b7e-97f5-9e523b3d4389","name":"Integra","price":1362.3,"city":"San Isidro"},
{"id":"8fe45325-7c1f-4a5a-93cd-0fa31b76cf01","name":"Regal","price":1064.86,"city":"Xinsheng"},
{"id":"c33f5d5c-dd16-407f-a932-b670aaeccf7f","name":"Sable","price":868.7,"city":"Zhenziliang"},
{"id":"cdf8efd6-4ad7-4dfb-8354-40a60eaf960e","name":"CL","price":1044.84,"city":"Strezhevoy"},
{"id":"a753a823-46c1-4016-b0f3-c567723f10b2","name":"Savana 2500","price":994.16,"city":"Albany"},
{"id":"ac0ff4ba-d1c6-40e7-8046-7e1229b9fa3b","name":"Montero Sport","price":874.0,"city":"Pavino"},
{"id":"20e58002-ffcb-4253-9d53-3098be9c7f47","name":"SVX","price":1024.87,"city":"Cennan"},
{"id":"616f69db-bf63-496f-a6b3-a1f857ca6038","name":"Ram Van 1500","price":657.28,"city":"Stavanger"},
{"id":"a6690d0e-6ad8-4c95-95aa-77b0ed0ca8e1","name":"Azera","price":661.7,"city":"Masiga"},
{"id":"b8fd62a5-1862-4548-907b-c45af408a104","name":"G-Class","price":1112.77,"city":"Ribeiro"},
{"id":"d8e1c6fa-18cc-4b83-9b23-280878ae7137","name":"MKX","price":811.66,"city":"Prínos"},
{"id":"70357d43-5ff7-4d46-97f9-497ecc1eb6c1","name":"Aveo","price":944.69,"city":"Kaparéllion"},
{"id":"b7d118b1-3624-496e-aa20-963250040cf1","name":"Savana 3500","price":769.51,"city":"Turenki"},
{"id":"9383d757-1404-4cd1-a58d-c5bb82cf00d2","name":"57S","price":1020.49,"city":"Mangaldan"},
{"id":"14302378-6e0b-4c0d-88cc-6e226bc5480b","name":"Crown Victoria","price":727.06,"city":"Dokshytsy"},
{"id":"b578c4e6-9325-4760-9a36-8963fee1fa42","name":"Fillmore","price":785.79,"city":"Chang Klang"},
{"id":"261b73cf-0d8f-4775-be7b-1ba016014195","name":"Continental GT","price":1287.49,"city":"Waterloo"},
{"id":"cb028794-3ec5-4bc2-8c6f-aa948eb5b07c","name":"M6","price":1273.07,"city":"Cimitarra"},
{"id":"65d439ba-27a0-4707-b62c-e4a30ae6324c","name":"LSS","price":1108.29,"city":"Gampang"},
{"id":"0dfbf124-e591-442d-ae21-5ed3e74f10cc","name":"Grand Am","price":1060.29,"city":"Zhizhong"},
{"id":"953cc480-56f0-4f6e-ad7b-f6e1245c623d","name":"Crossfire","price":1007.02,"city":"Adar"},
{"id":"a428a929-08dd-4efd-bacb-e607b500e033","name":"TrailBlazer","price":952.21,"city":"Skuratovskiy"},
{"id":"ac5e78d4-95d1-46d1-bb18-964e64417de1","name":"LR3","price":766.28,"city":"Lyntupy"},
{"id":"f84c87ee-879e-4085-ba98-d84a97f1132e","name":"Grand Am","price":1262.51,"city":"Libofshë"},
{"id":"ffce9eec-f8a6-4dc0-83d3-ee7002e25674","name":"Aztek","price":1016.75,"city":"Jiusi"},
{"id":"5b95035a-76be-4606-9456-93878f0b7297","name":"Freestyle","price":907.5,"city":"Marāveh Tappeh"},
{"id":"cd081299-27c9-4a5c-9965-d72a5e448c2e","name":"Azure","price":967.48,"city":"Tietê"},
{"id":"9e35b394-59bd-48b7-a93c-73e092ab888e","name":"Venture","price":658.44,"city":"Łapanów"},
{"id":"7b3d7675-3a5f-4bca-9d47-f58a8d64cbe5","name":"Frontier","price":569.68,"city":"Sabi"},
{"id":"b12dd5b2-1d8c-46bd-8194-af061bc76ffc","name":"Range Rover","price":814.15,"city":"Néa Kíos"},
{"id":"0be89f4e-d62f-4679-b053-a85549d132fa","name":"M-Class","price":672.98,"city":"Klokot"},
{"id":"9e50ac10-52b1-485f-ad9e-cc28351c7683","name":"Tiburon","price":911.19,"city":"Sabanagrande"},
{"id":"8094610e-b1b1-4af3-a06f-ee7f5cbc52b5","name":"57S","price":1192.81,"city":"Spring"},
{"id":"c2f384a9-550c-456d-b16e-6faef3117228","name":"2500 Club Coupe","price":851.5,"city":"Pavlovka"},
{"id":"162e9838-3d95-4d54-ab95-351f210056b0","name":"SC","price":862.52,"city":"Burgastai"},
{"id":"bdc0c744-5e0f-445e-92ab-e8e54ca834e9","name":"Corvette","price":965.04,"city":"New Orleans"},
{"id":"f997d347-1e26-4fe0-91eb-a03674778bdf","name":"Ram","price":995.41,"city":"Flores da Cunha"},
{"id":"96d1b8bc-7c50-4f16-8357-278bda99ee48","name":"TT","price":545.27,"city":"Hinapalanan"},
{"id":"204f64b9-91f8-4bbf-81ab-291c3b53a78c","name":"Titan","price":858.1,"city":"Baiyan"},
{"id":"14807037-e68d-41f1-bca0-3fee20f325f7","name":"Montero Sport","price":499.3,"city":"São Marcos"},
{"id":"e7430cff-9c93-4db3-a655-40457b60d836","name":"9000","price":1135.29,"city":"Uppsala"},
{"id":"183c4bd1-229a-42dd-9ed0-a958f23378f9","name":"5000S","price":944.67,"city":"Punkalaidun"},
{"id":"22813188-3632-4954-af2a-61e8cd45c9a5","name":"QX56","price":894.67,"city":"Merrifield"},
{"id":"9212e30c-833f-4ff4-8dca-f623b2cb2d18","name":"Metro","price":1349.69,"city":"Oumé"},
{"id":"00a02ddf-fa50-4a33-8a63-ef36c91804b8","name":"Corvette","price":1093.0,"city":"Futtsu"},
{"id":"c695dbd2-9c70-4ff2-bc16-056a481dd176","name":"Sierra 1500","price":1193.19,"city":"Tarnowskie Góry"},
{"id":"c6bf25a7-0c63-47a3-994c-087bb6915e27","name":"Baja","price":1025.55,"city":"Nowe"},
{"id":"fafc7bdc-7cb5-450b-bc66-3a97a4ee9eb6","name":"Montero","price":1103.53,"city":"Wangtai"},
{"id":"2722305c-1181-4500-af1b-48ba776850d3","name":"Rodeo Sport","price":984.02,"city":"Vitomarci"},
{"id":"ccf9271e-2134-42e8-8459-0c73d137a4a3","name":"Familia","price":848.62,"city":"Adraskan"},
{"id":"2ae8b5d3-2c89-4b64-899d-c64d29563fc5","name":"4Runner","price":1163.28,"city":"Xiaolukou"},
{"id":"64eaac12-6fcd-44c9-82c6-319293b75786","name":"Reno","price":1077.37,"city":"Las Flores"},
{"id":"a5a5c685-cb92-4fd3-acc2-b1ba7c8cec31","name":"Camaro","price":973.66,"city":"Līkak"},
{"id":"ef4f5ce1-72c5-4a88-9e5f-4d19b1cc9a79","name":"GX","price":1061.64,"city":"Gyumri"},
{"id":"7063eb8a-a2f8-4334-8723-745c943a5341","name":"PT Cruiser","price":827.43,"city":"Kibre Mengist"},
{"id":"1ed3f886-3059-4492-a4f7-49bf3b852bcd","name":"Golf","price":1027.63,"city":"Łubniany"},
{"id":"5b1c086e-e87d-43a7-b4a1-28e98b3ce108","name":"Breeze","price":846.75,"city":"Iradan"},
{"id":"c4debcc0-099c-4cd3-8031-ea2a5697c2ab","name":"LTD Crown Victoria","price":785.13,"city":"Gbarnga"},
{"id":"82956fec-4f18-4142-957d-8b0ea8ea63d8","name":"Impreza","price":1295.95,"city":"Kalmar"},
{"id":"6d49a685-b997-4cb6-baf0-6ba930dd0178","name":"RX","price":969.25,"city":"Zhangduangu"},
{"id":"631be87a-5a45-41ef-8748-947add6c542d","name":"Q5","price":1248.35,"city":"Ampera"},
{"id":"1e5b8c82-d4e6-42a5-acd3-f64b2a85dd94","name":"Safari","price":696.07,"city":"Nanjing"},
{"id":"95eb2bdc-5cb3-47d3-bcba-a39101eaa351","name":"Viper","price":1089.75,"city":"Stará Paka"},
{"id":"b87dbfe1-6164-472a-84b6-6ea935a28d9e","name":"Impala","price":1266.77,"city":"Tengger"},
{"id":"6cdbd851-eeec-43eb-9380-620365212dd6","name":"929","price":717.25,"city":"Sibagat"},
{"id":"3c4ac50e-a0f3-47eb-9de2-0c9fccead9ec","name":"Envoy","price":1309.85,"city":"Makale"},
{"id":"a02ff3f3-eed5-4ba1-98ed-a2dd690940e9","name":"Electra","price":1268.24,"city":"Wuxing"},
{"id":"048789c0-8746-4083-aeb4-635a3f668418","name":"S-Type","price":1158.58,"city":"Beloha"},
{"id":"46c5d380-14d9-493f-821a-5b302e198485","name":"MR2","price":1130.91,"city":"Bagumbayan"},
{"id":"5484a7b2-6697-4f96-b711-917a3585f57f","name":"Ram","price":1193.79,"city":"Casisang"},
{"id":"537ab745-7f97-4416-8029-a2a34c6cba02","name":"Pajero","price":1028.89,"city":"Paprotnia"},
{"id":"9fa77015-70fe-4805-9691-305ca1dbaf14","name":"Grand Vitara","price":1418.99,"city":"Liuzhuang"},
{"id":"87ea1bcf-537a-4ea8-b9ba-0032ae3b36ad","name":"TL","price":851.43,"city":"Huyuan"},
{"id":"226ffd08-4335-4471-917b-97d6d4830437","name":"Colorado","price":929.71,"city":"Alcabideche"},
{"id":"d4aa53b2-1959-4536-a6aa-7e3505060890","name":"Millenia","price":1036.91,"city":"Papatowai"},
{"id":"b3ca2acf-9e82-4f02-9736-0c0c1a3f1b56","name":"2500 Club Coupe","price":842.59,"city":"Gongjiang"},
{"id":"99d7ae87-6eaa-44fc-8f81-4c0af27006aa","name":"V70","price":1009.69,"city":"Karlstad"},
{"id":"aa443d4d-8188-4bf3-ab84-6dd2b97526d2","name":"Santa Fe","price":976.68,"city":"Khirdalan"},
{"id":"b73bac54-8f93-42c3-b248-a3b14e0fd53c","name":"Yaris","price":1030.85,"city":"Qinggis Han"},
{"id":"c7063020-3db5-42a5-823e-e531d9ce7300","name":"Millenia","price":794.93,"city":"Na Chaluai"},
{"id":"3038a1a0-bc8d-49dc-a6dc-60c589b1b5cb","name":"MKS","price":958.83,"city":"Téra"},
{"id":"977835e9-6003-4986-8667-75b6d5684189","name":"Amigo","price":961.83,"city":"Lamak"},
{"id":"9f8b6820-9d16-4eb9-a487-4ab5beaf3fb7","name":"Suburban","price":1152.27,"city":"Shōbara"},
{"id":"5949c2b2-9b13-426d-9dc3-e0d937cf9a53","name":"200","price":859.46,"city":"Stonewall"},
{"id":"9c388a17-b794-4864-8546-40029525a4a4","name":"Bronco II","price":996.27,"city":"Tall Salḩab"},
{"id":"007bd9fb-1a51-4f66-86b4-838c07448264","name":"3500","price":874.25,"city":"Sakura"},
{"id":"bb403e51-3b8a-45cd-b49f-cf5a9fcd919f","name":"Silverado","price":1049.27,"city":"Kańczuga"},
{"id":"0c919f4b-05ba-4412-b754-5abb6d8ead50","name":"LR3","price":940.81,"city":"Ivano-Frankove"},
{"id":"ca02c4a4-6e6e-442d-9d4f-c26f9b830f7d","name":"Grand Cherokee","price":937.11,"city":"Pulorejo"},
{"id":"4eab600c-ed9e-480e-a489-375b806b2dfb","name":"Boxster","price":1082.13,"city":"Valence"},
{"id":"40f29e0a-1f90-4d64-910e-f0053d102bda","name":"Vibe","price":1170.41,"city":"Saguing"},
{"id":"04cbba9b-65c7-49d3-a59f-3b99af3acccc","name":"XT","price":627.88,"city":"Xindian"},
{"id":"212cfeda-0f11-4cbc-80ef-795c1dbf757e","name":"Colt","price":678.38,"city":"Tipo-Tipo"},
{"id":"91e86327-dc69-4f7f-8deb-427c0ebefe60","name":"Silverado 3500","price":1216.0,"city":"Toulouse"},
{"id":"d272380d-4708-45aa-9e81-5270b6bd1edb","name":"Optima","price":1118.49,"city":"Balas"},
{"id":"a5d26031-59ed-4ef6-bb29-22a30b735f6a","name":"Tiburon","price":973.78,"city":"Pawa"},
{"id":"01c46985-4355-4839-ae69-f59374b78694","name":"Cabriolet","price":950.0,"city":"Kalde Panga"},
{"id":"c34c23a6-29c6-4119-8b65-8e87ad8f05b5","name":"Wrangler","price":991.77,"city":"Bjästa"},
{"id":"2d289eac-7ef9-4cea-9710-68a78f412da0","name":"Sable","price":767.16,"city":"Zaña"},
{"id":"0d6fa723-0631-4251-9c3b-1f77729101ed","name":"Land Cruiser","price":1036.23,"city":"Wangshi"},
{"id":"0caa52ad-aa99-4fb9-9f29-e42205c39786","name":"Econoline E350","price":942.24,"city":"Risālpur"},
{"id":"831298a3-3422-4cfa-a9d2-b0d00933a929","name":"525","price":905.13,"city":"Irákleion"},
{"id":"41e32047-c5a5-4636-aa32-856aa3fa8a92","name":"Malibu","price":1088.28,"city":"Fucheng"},
{"id":"f2368d5a-071e-4fce-b317-ab4ff291a857","name":"Jetta III","price":899.71,"city":"Tagbilaran City"},
{"id":"173f0d42-c70b-4128-a71c-74df3b87310c","name":"Golf III","price":808.78,"city":"Hengjie"},
{"id":"424f1d7e-0dde-4bdd-a215-c76b7cee1c20","name":"CLK-Class","price":1124.4,"city":"Pulau Pinang"},
{"id":"ff673072-06e1-44c0-a7c9-3b2336760a8b","name":"Rabbit","price":827.05,"city":"Qihama"},
{"id":"d66618d8-d456-4854-9e8f-7ebe13e272c8","name":"VUE","price":880.48,"city":"Al Ḩawāmidīyah"},
{"id":"99e00de5-e70f-447f-97b9-cb6cc80e612c","name":"C-Class","price":1078.23,"city":"Memória"},
{"id":"d551f3e4-d6bc-460b-b0cb-f6b98ed8a52c","name":"Envoy XL","price":670.58,"city":"Huyuan"},
{"id":"200cc2fe-6708-44cd-9928-1ef93aeebfbc","name":"Q","price":1111.2,"city":"Zherdevka"},
{"id":"5fa8f7f0-0911-481d-9186-9e1482a04c1e","name":"Yukon XL 2500","price":985.48,"city":"Banjar Ambengan"},
{"id":"968f130f-6de7-42bf-9a42-a0888c0e7235","name":"Sidekick","price":895.21,"city":"Ankazondandy"},
{"id":"e0744756-c1e1-4b2c-8420-7c30b174cde2","name":"Bronco","price":1105.88,"city":"Babao"},
{"id":"7e44a89e-5b5f-4b0a-ad64-f7c5bc87e0bc","name":"1000","price":986.24,"city":"Zakupne"},
{"id":"aeb90122-f8a7-4912-9e5a-ce020e65c481","name":"G-Class","price":740.77,"city":"Daxing"},
{"id":"5e4ec351-3015-4eca-9344-86cc71b80134","name":"X3","price":1047.37,"city":"Xiongzhang"},
{"id":"145136b0-f12e-4cc7-a4f5-fecfb52170ba","name":"LS","price":783.17,"city":"Cagliari"},
{"id":"b3002a23-d8cf-41da-80f9-d4af5793ff47","name":"T100 Xtra","price":1065.98,"city":"Saint-Étienne"},
{"id":"45b0f069-0890-4628-b737-100e51a38eaf","name":"SC","price":911.81,"city":"Sande São Martinho"},
{"id":"5c6cee8f-c13f-468e-8de7-6a26cb7dfef0","name":"MPV","price":1003.3,"city":"Xujiaqiao"},
{"id":"3bfc689e-588f-40d7-a957-7116958c53f9","name":"5000S","price":606.05,"city":"São Domingos"},
{"id":"7f6496af-b15d-4457-a19b-4f599ffde2d8","name":"M","price":1134.2,"city":"Gevgelija"},
{"id":"e6a5019a-b32f-4583-b025-d420b37cdab2","name":"Camry","price":1153.83,"city":"Darungan Lor"},
{"id":"42f44b19-d5ec-4939-83d6-b1b9d52b66e6","name":"S80","price":1216.31,"city":"Reuleuet"},
{"id":"078d6bd1-bf59-4b54-9446-33857dabbd12","name":"Monte Carlo","price":948.43,"city":"Moijabana"},
{"id":"436bcc58-ddea-4c15-9f86-52d85995ac46","name":"Suburban 1500","price":727.45,"city":"Quận Năm"},
{"id":"271b6cfd-d85d-4ffc-9bb3-1372ac7117e0","name":"Ram 1500","price":993.76,"city":"Gaoling"},
{"id":"1726cb42-38fc-42be-bc0a-9e844b8dea39","name":"Lucerne","price":909.09,"city":"Fundación"},
{"id":"8c652aea-becb-4e42-b10f-82c7d2adbff0","name":"Firefly","price":1025.35,"city":"Baise City"},
{"id":"186457c4-3107-4b5a-892a-3466a5a784fe","name":"Club Wagon","price":914.94,"city":"Barbosa"},
{"id":"5787564a-01bf-49ab-9c5b-45fc89c57cf5","name":"Accord","price":1312.32,"city":"Portelândia"},
{"id":"edc0229b-c15a-4205-8d40-582264322a42","name":"5 Series","price":928.11,"city":"Xike"},
{"id":"f15fa8b9-58de-498b-a64b-26960002739b","name":"NSX","price":834.6,"city":"Sedan"},
{"id":"16fcd87c-8ed2-452f-9aa2-34bd88efa9f2","name":"H1","price":1132.55,"city":"Richmond"},
{"id":"df6619b2-c217-4ae0-8a07-8c66638bf9cd","name":"Yukon XL 2500","price":1101.13,"city":"Bang Na"},
{"id":"a16c27ae-a1c9-471f-af45-1eb5560bf814","name":"300SD","price":945.21,"city":"Jambesari"},
{"id":"56d2a89e-7ee2-4258-bb57-59b85f64c145","name":"Q","price":990.94,"city":"Drahovo"},
{"id":"7064eb72-b121-4c38-b79c-70b7b7605621","name":"Wrangler","price":1207.57,"city":"Bitaogan"},
{"id":"1052115c-8d61-4e5e-aefd-90a7a2919673","name":"Canyon","price":1135.67,"city":"São Roque"},
{"id":"b6e4b88a-d047-47d4-ac90-afe7e185cd34","name":"612 Scaglietti","price":1393.92,"city":"Kihurio"},
{"id":"050c6c5b-728c-44ce-a890-928061edc218","name":"1000","price":1133.39,"city":"Kaiyuan"},
{"id":"43e638eb-f78c-4a19-a9a2-6749a3be9b16","name":"Econoline E150","price":533.17,"city":"Karlstad"},
{"id":"cf886735-e76e-4f5c-afd7-146e254b52fa","name":"ES","price":1268.71,"city":"Suphan Buri"},
{"id":"a0e9247b-cd88-496b-9b4d-adf06aca30a7","name":"Pajero","price":1005.28,"city":"Reckange-sur-Mess"},
{"id":"6bf258cc-4b2f-4595-8eb0-4dad5748c958","name":"Parisienne","price":862.54,"city":"Dolní Libina"},
{"id":"23962841-fc53-4e13-a0c3-6ea81bac6f0d","name":"Rainier","price":840.55,"city":"Terneuzen"},
{"id":"144a76c7-d390-49de-bf08-b91d6ff3c3d0","name":"Caravan","price":845.97,"city":"Damnoen Saduak"},
{"id":"b8030742-39d6-4e7b-aee9-d8071dc5b658","name":"Ram 1500","price":856.42,"city":"Shediac"},
{"id":"6916ea8d-ddb5-4fd6-86d2-e71a01a4ced4","name":"Paseo","price":767.26,"city":"Juḩr ad Dīk"},
{"id":"286b5773-f690-4a4f-bd16-d90731cf59fb","name":"Savana 1500","price":627.11,"city":"Bamut"},
{"id":"83090550-345f-490d-a44c-3d626a388678","name":"Land Cruiser","price":979.81,"city":"Gyamco"},
{"id":"0a666e37-d3cb-4bea-ab49-129459ea8ebc","name":"MX-6","price":1126.18,"city":"Zhangatas"},
{"id":"74b07251-8418-45c0-abe3-a50cc344a0cb","name":"GranTurismo","price":869.49,"city":"Aguiar da Beira"},
{"id":"4676edce-f249-4acb-8f21-8fd86198f12a","name":"Odyssey","price":884.36,"city":"Stockholm"},
{"id":"75fbd0df-0b8e-4259-a3dc-61d41bd2eea5","name":"Taurus","price":915.92,"city":"Bearna"},
{"id":"5de49067-084c-44f1-91b1-5944faec2454","name":"Escalade ESV","price":881.87,"city":"Ludvika"},
{"id":"9b99a092-f2b2-48ca-ae71-2250af3fc4c0","name":"Mustang","price":1405.57,"city":"Yakutsk"},
{"id":"1b924316-b46c-4eb0-b99b-ba1ef70ef4b6","name":"Bronco","price":1067.35,"city":"Gondang"},
{"id":"b0ec7058-0dfb-4405-bdbf-46703376c3bd","name":"xB","price":967.98,"city":"Mojimán"},
{"id":"4bf531bb-1fac-4717-a3ed-ffe23051b5cd","name":"Trans Sport","price":1190.82,"city":"Nanhai"},
{"id":"101b7c09-fb72-429c-a1b3-3ab36821f8a2","name":"300ZX","price":1202.19,"city":"Pallasovka"},
{"id":"dd0355ac-2c80-4067-9402-21287e5c2fac","name":"RL","price":1132.43,"city":"Río Grande"},
{"id":"46057c07-bb82-47f1-a260-75124a147965","name":"Escort","price":1158.76,"city":"Huaniao"},
{"id":"d92d3870-edba-4098-8503-bef0173eb4f6","name":"7 Series","price":555.62,"city":"Garissa"},
{"id":"d1a3332d-6c4c-4062-bb57-afd559d8addd","name":"Type 2","price":1344.6,"city":"Bajomulyo"},
{"id":"8b5d1e62-856d-4604-b143-ccdeae5d8507","name":"Golf III","price":764.44,"city":"Piñahan"},
{"id":"7bcaf2e9-9d35-4ade-8b2a-b6a633b6a8c2","name":"Odyssey","price":1137.32,"city":"Cortezia"},
{"id":"8b7a9d54-abbf-4899-a73d-3ca0eca4c93f","name":"Lucerne","price":1089.08,"city":"Jixian"},
{"id":"f42337d8-f098-4d9f-be3e-c042843e3e0c","name":"RX-7","price":532.28,"city":"Isfara"},
{"id":"12ee062c-9fcc-41e1-ad91-0dfd243e56b4","name":"Accent","price":1010.74,"city":"Rîbniţa"},
{"id":"f2cf9eaa-6034-4dff-83dc-7f4f67982e27","name":"MX-5","price":888.44,"city":"Marmashen"},
{"id":"374b19c5-9db8-4611-959c-ad2d40667b35","name":"Aveo","price":1256.55,"city":"Daxi"},
{"id":"cba655a4-8c69-4ed6-a81b-2a37753900fe","name":"Arnage","price":1060.82,"city":"Pasargunung"},
{"id":"faf3406a-e3fb-4f7b-9fd5-6c85ff5d00b1","name":"2500","price":995.9,"city":"Randusari"},
{"id":"ecf41d0f-7bc6-4d8f-b87b-bb708c97f378","name":"Suburban 1500","price":1079.5,"city":"Jiatou"},
{"id":"1b81deba-18f1-43f0-a414-65f571aa34c3","name":"Nitro","price":864.56,"city":"Balneário Camboriú"},
{"id":"2ec17fba-6e53-46bc-80cf-45e7eb682092","name":"Tercel","price":1166.68,"city":"Timashëvsk"},
{"id":"97d77bd5-8a8b-44c3-96d3-016caa6b9c0f","name":"Tracer","price":1174.99,"city":"Kota Kinabalu"},
{"id":"16ec6697-c21c-4d74-bbca-292a97ceea6c","name":"Probe","price":933.87,"city":"Krajan Demit"},
{"id":"d73dd669-b975-47ce-ab3b-c8e67320dfb7","name":"Express 2500","price":1076.71,"city":"Lafayette"},
{"id":"d2367af2-0897-4eb0-a171-b90cade8e099","name":"E-Series","price":975.81,"city":"Jishui"},
{"id":"b7b624ec-a6bc-494f-9cef-7f36c9c13ca6","name":"XC90","price":1123.71,"city":"Kolbano"},
{"id":"f5d7f2c2-6501-462a-bc56-3085453b0e7e","name":"530","price":974.41,"city":"Haymā’"},
{"id":"50b58452-fb49-492f-a007-3b5c001dbb71","name":"Express 1500","price":1136.35,"city":"Tingloy"},
{"id":"7f5a568f-4627-4543-963f-6caaeb831704","name":"Explorer Sport Trac","price":1125.82,"city":"Soledad"},
{"id":"256fd6d0-0a6f-4f1b-a55b-bec7209d44b4","name":"VUE","price":829.15,"city":"Balīlā"},
{"id":"c93dc497-3705-4b15-bc12-604e8bd97a53","name":"Explorer Sport","price":1113.16,"city":"Wujiao"},
{"id":"0df10ac1-3def-4121-9692-863fc708bf92","name":"Eldorado","price":1061.03,"city":"Pewel Wielka"},
{"id":"eb489e6b-cd44-4536-be30-eabf34b19de3","name":"Seville","price":1130.77,"city":"Tumbi"},
{"id":"36cc77c8-7a13-47da-a403-75618b62111e","name":"Bronco","price":1108.51,"city":"Kaishantun"},
{"id":"3b96cfc1-3045-43d6-94a7-8535a5064fad","name":"Gallardo","price":822.7,"city":"Igbo-Ukwu"},
{"id":"a38f4412-c52e-4dad-bf89-bb0ddf0a0b36","name":"Range Rover","price":1316.85,"city":"Brive-la-Gaillarde"},
{"id":"c3fefaba-c451-4e41-b32a-81853bdb7461","name":"Grand Marquis","price":718.1,"city":"Pasadena"},
{"id":"209b7b96-391a-4b35-bc57-b8e17232e360","name":"Ram 1500 Club","price":1137.78,"city":"Néa Ankhíalos"},
{"id":"f29808c2-30fc-4b7b-8bd9-afcb3d467600","name":"xB","price":1043.15,"city":"Hongcao"},
{"id":"8fcc925a-bca9-482c-bc82-62f3a625a848","name":"Silverado 2500","price":749.09,"city":"Jepuro"},
{"id":"f20a9bf0-fcda-4f00-9060-c5acbe0d3d67","name":"62","price":1009.4,"city":"Staryy Togul"},
{"id":"528b3095-7a98-46f7-951d-16e64c7befc2","name":"L-Series","price":1009.92,"city":"Novyy Oskol"},
{"id":"69132555-af9b-42bd-ad25-eadfc7e86712","name":"Rio","price":888.43,"city":"Krosno Odrzańskie"},
{"id":"d2cd3ed7-f5be-4051-ac59-b082c0ccb958","name":"Ranger","price":803.15,"city":"Roudnice nad Labem"},
{"id":"2322b635-5317-4a66-83f8-64ba8a8922d2","name":"ES","price":1105.28,"city":"Severka"},
{"id":"6d6be013-d358-4eb4-8e9d-7ef38bb43ba8","name":"Alero","price":1021.29,"city":"Lomma"},
{"id":"cbd4dc8e-2ba9-4792-879e-44532ee08487","name":"Rondo","price":711.59,"city":"Novyy Uoyan"},
{"id":"12b9d6b1-b701-486b-b15e-0486f8487ee0","name":"Avalon","price":1256.36,"city":"Paarl"},
{"id":"2b4f0855-5c76-496d-a206-57e67cee5628","name":"Sonata","price":726.98,"city":"Buliok"},
{"id":"74edc315-8243-4fbd-92bb-0c95ae5cda87","name":"Intrepid","price":1048.97,"city":"Ormstown"},
{"id":"868e4d10-38d3-4a0d-ab9f-79ef0acbd3e8","name":"Esprit","price":876.57,"city":"Neklyudovo"},
{"id":"73878f61-73b4-4789-bbf0-0383015450ea","name":"Defender 110","price":991.31,"city":"Cantapoy"},
{"id":"9173227e-c276-4b47-8937-bb1d6633cd16","name":"Murciélago","price":841.21,"city":"Chelbasskaya"},
{"id":"0225d680-792e-4181-b399-dec9c1c81f7d","name":"Escape","price":1254.05,"city":"Ujae"},
{"id":"b5daa13a-16bb-48c0-b463-6374d1215be1","name":"Veracruz","price":1061.55,"city":"Bejsce"},
{"id":"71dc6884-d9cb-48f0-9f95-1cb044616b23","name":"Somerset","price":1193.88,"city":"Bétérou"},
{"id":"9c0173c1-b07e-4c41-bb64-cfc48b1833f1","name":"S60","price":1256.89,"city":"Volzhskiy"},
{"id":"5179b1ce-6df4-4a94-bea4-157b8e9dc115","name":"Montego","price":445.39,"city":"Partizansk"},
{"id":"b1316e8c-c9af-4e37-b2ef-3f803ac113ed","name":"Z3","price":1279.06,"city":"Botucatu"},
{"id":"16a56e1c-a823-4a3e-8034-b5fa2aa3ef71","name":"Corrado","price":851.37,"city":"Lyozna"},
{"id":"f36be34d-ecda-417f-9c9f-509f8ff8e8ec","name":"F150","price":1369.28,"city":"Sovetskoye"},
{"id":"00ca0a57-2afd-4faa-8217-36d1eb68275b","name":"TSX","price":1088.56,"city":"Stockholm"},
{"id":"19e1fdaa-d2cc-4841-b1a6-41613ea6da45","name":"Ram 1500","price":1215.57,"city":"Laliki"},
{"id":"54234973-7884-456c-8bab-732468df241b","name":"Town Car","price":963.03,"city":"Junyang"},
{"id":"3b0d4b0d-2452-4ea6-a6b8-3b965f9a5819","name":"928","price":1155.24,"city":"Islamey"},
{"id":"adaa7337-a2d3-411a-96e3-5d205f8e68f2","name":"Firebird Formula","price":888.36,"city":"Stockholm"},
{"id":"168f3782-5b95-4aa7-922d-e793d203eeec","name":"Park Avenue","price":1180.65,"city":"Luis Donaldo Colosio"},
{"id":"c8a8b84b-d9f5-4aca-b633-ffa5b7d5d889","name":"ZDX","price":1069.49,"city":"Magsalangi"},
{"id":"936d39e4-bfb8-45a0-b338-f80b88db9bf9","name":"190E","price":1039.61,"city":"Baiyin"},
{"id":"8a4bd9da-7417-44e8-b7dc-cb78d2110442","name":"929","price":926.8,"city":"Lipin Bor"},
{"id":"ca2a40e0-11d1-4037-8141-c36344d22bf6","name":"Corvette","price":1094.68,"city":"Al Fayyūm"},
{"id":"4590e733-e815-40ba-9300-489113a8c4ad","name":"Suburban 2500","price":1070.6,"city":"Jurovski Dol"},
{"id":"212138a8-2f9c-402b-b04b-ca00523d7d45","name":"RX-7","price":1328.19,"city":"Makoua"},
{"id":"05f35606-8a45-4839-973c-7a02602f5c07","name":"Venture","price":767.62,"city":"Lévis"},
{"id":"d9be9c7a-a562-4d4d-bc72-19c005d39852","name":"Thunderbird","price":711.09,"city":"Miribanteng"},
{"id":"721c37f4-4acf-41c5-8306-88a752a35f10","name":"Genesis","price":1241.66,"city":"Maojiadian"},
{"id":"ae446247-ee4a-49eb-b507-f8b5c1855854","name":"Ram Van 3500","price":1241.06,"city":"Communal"},
{"id":"bb02598e-fa76-44aa-b0d7-ff59cb3c1c72","name":"SLK-Class","price":1088.73,"city":"Puerto Varas"},
{"id":"a2912284-b8f4-4077-9589-bbc4e10a29f7","name":"Cayenne","price":1136.43,"city":"Villa Ángela"},
{"id":"ec5932d9-793e-476b-a427-18ba79e4d264","name":"Continental GTC","price":1263.18,"city":"Gradac"},
{"id":"07f3fb02-02f9-44f5-a043-91a060b33a62","name":"Aveo","price":1308.96,"city":"Quchomo"},
{"id":"68785864-e517-400f-ad20-64790f342977","name":"Corvette","price":1082.78,"city":"Kurbnesh"},
{"id":"0063a6b6-ed5c-4852-b747-40d7602b0820","name":"Econoline E250","price":1078.25,"city":"Idi Iroko"},
{"id":"380d7116-e756-40eb-9813-6b3a277768f4","name":"C70","price":991.22,"city":"Duran"},
{"id":"8444561e-9673-4003-85dd-a6f089095f36","name":"Celica","price":560.12,"city":"Luján de Cuyo"},
{"id":"8dcc0bea-596a-48e5-b805-e474bcad8815","name":"Passport","price":744.25,"city":"Cluain Meala"},
{"id":"466d1291-ab40-4d1d-be59-72a0a5b1e9c9","name":"Fusion","price":723.92,"city":"Khāndbāri"},
{"id":"1cca55cb-2847-42fa-b65d-17f802a22887","name":"Impreza","price":1130.71,"city":"Kashirskoye"},
{"id":"d2fe546d-cf08-4ba8-8879-4d2f86e1be91","name":"Aveo","price":1365.79,"city":"Tempuran"},
{"id":"bcc6123b-ec3e-41c8-822b-35266f29973d","name":"Grand Prix","price":1107.42,"city":"Pouso Alegre"},
{"id":"b50802ee-181d-4e82-a737-d6fb717c9a68","name":"Grand Marquis","price":927.55,"city":"Qingchuan"},
{"id":"ed4f3d0d-f369-439e-8000-4d1eb22d60b4","name":"Focus","price":1000.92,"city":"Wenhe"},
{"id":"88ac6c92-a88b-4287-92a0-94a2c4463d2a","name":"E-Series","price":1056.21,"city":"Gaohe"},
{"id":"d7594d32-3342-4e38-a13c-4170c20aa5a3","name":"Regal","price":1056.42,"city":"Khadīr"},
{"id":"e2425ee8-90a2-4a20-85f8-1f887b9321aa","name":"Trans Sport","price":994.69,"city":"San Marcelino"},
{"id":"14db72c3-e6c6-4b20-9f52-ad4b95b021dc","name":"Windstar","price":626.34,"city":"Torres Vedras"},
{"id":"ff11dc0e-0df5-472d-9ee9-5b895185a884","name":"Festiva","price":961.92,"city":"Baton Rouge"},
{"id":"7572e39f-74f1-4184-8f1b-d8ff0f015657","name":"Rio","price":825.4,"city":"Saddina"},
{"id":"5cb9de7d-b8da-4524-85fd-9e06e993f7e0","name":"SC","price":942.11,"city":"Mont-Tremblant"},
{"id":"bb38630d-2038-4d0d-b186-8be6f7ed3781","name":"Corrado","price":914.22,"city":"Tarbagatay"},
{"id":"cef90121-838f-4bcc-8657-3733534b02fd","name":"Voyager","price":978.37,"city":"Söderköping"},
{"id":"b28cc2e8-be3a-4548-9cc5-74a6c12c2c82","name":"Arnage","price":987.62,"city":"Batawa"},
{"id":"0ade6071-9094-4ebc-a6f2-986263e4bda4","name":"Malibu","price":826.11,"city":"Phra Khanong"},
{"id":"d4f41164-5d87-4c82-8879-b85ed5c8c6b0","name":"Civic","price":822.66,"city":"Gaowu"},
{"id":"6bcecb90-45d6-42cf-8e57-ae32a4d0ae79","name":"Range Rover","price":1361.59,"city":"Dū Laīnah"},
{"id":"ffab6703-8141-4767-926a-a564b2978f36","name":"Xterra","price":517.88,"city":"Wierzbica"},
{"id":"9e55392d-b022-4212-8188-77b3ed06c6a5","name":"Mighty Max Macro","price":808.45,"city":"Strasbourg"},
{"id":"47ce81dd-28da-434f-82d2-d939eb673cd4","name":"SLK-Class","price":516.18,"city":"Mampong"},
{"id":"b9fe1483-d374-4c4d-8fc5-765cf3bb6094","name":"XC70","price":976.16,"city":"Gjegjan"},
{"id":"13439f1c-434f-4f91-8237-60424f4a1529","name":"TT","price":833.01,"city":"Beppu"},
{"id":"2eaebb0b-9263-446e-b1a4-56d1d92219f1","name":"F-Series","price":1024.16,"city":"Woto"},
{"id":"e553e2f8-9d77-4612-9c1a-cecc009eb0ba","name":"Bonneville","price":1062.07,"city":"San Marcos"},
{"id":"0a19760b-ba3c-41fb-b191-bd800fbe1161","name":"Explorer","price":1000.72,"city":"Kubangeceng"},
{"id":"0768923c-f691-4567-bdca-461b150fb4d5","name":"S80","price":1569.55,"city":"Bicurga"},
{"id":"9b912a4a-0b2c-4d71-8df7-71ab753acc76","name":"Impala","price":951.02,"city":"Domont"},
{"id":"449153a8-829d-4a92-a2bf-1fa6d727b796","name":"500SL","price":983.69,"city":"Gus’-Khrustal’nyy"},
{"id":"886e6671-75b3-4b95-84a9-056622ce2299","name":"Corvette","price":1105.49,"city":"Ikata-chō"},
{"id":"1fd52b9d-37ba-4bb8-b373-345f9f85e544","name":"Versa","price":815.74,"city":"Goiatuba"},
{"id":"d450cd3e-4aa9-489a-8adf-9efb0e222347","name":"Outback","price":1431.59,"city":"Hrib-Loški Potok"},
{"id":"8b1aea0e-f59b-467f-a50e-a9333e2d6c6b","name":"Altima","price":984.41,"city":"Krousón"},
{"id":"9459e4f0-2867-4fae-9639-0e32fbc422e1","name":"Insight","price":718.68,"city":"Blora"},
{"id":"d02581d2-6481-4e22-9a7a-37a91de4579d","name":"LS","price":1017.64,"city":"Petaẖ Tiqwa"},
{"id":"443f901c-d29a-430f-b2c3-ee0ea92fdf1f","name":"Yukon XL 1500","price":1078.06,"city":"Jacaraú"},
{"id":"b8cf0778-e25b-458f-9028-1a8d3617c3a0","name":"Sky","price":904.72,"city":"Paso de los Libres"},
{"id":"8512855a-f52f-4bbc-b1da-61818ed9e40e","name":"Sonoma","price":1240.04,"city":"Dashi"},
{"id":"fd0e5178-fc42-4834-bcec-059a773e655f","name":"Century","price":1099.27,"city":"Brusque"},
{"id":"1a5d73d2-8d85-45e8-91a2-1c35ce371613","name":"Routan","price":1071.43,"city":"Hejiaping"},
{"id":"65b27ff5-8ef5-4164-8305-bacbcf9eb43f","name":"Riviera","price":1140.48,"city":"Sadov"},
{"id":"e4f470c1-cf2e-464d-91ba-6539deb91d8f","name":"Park Avenue","price":1092.13,"city":"Janeng"},
{"id":"a9b2ab65-5c36-4535-a1b6-8711405b2a42","name":"Yukon","price":1106.98,"city":"Bobota"},
{"id":"65786d85-2c89-4aa7-b417-0fff6899931f","name":"Legend","price":945.54,"city":"Pālang"},
{"id":"81917aee-28d4-468d-844e-c432336001f9","name":"Pajero","price":1068.64,"city":"Masipi West"},
{"id":"8ecfd81a-5a48-4116-a782-987b9d3eded4","name":"A6","price":1273.53,"city":"Magnitka"},
{"id":"a29c0752-2812-4048-87dd-5e1267a971af","name":"Mirage","price":1145.35,"city":"Swinford"},
{"id":"f108a0e8-9ff9-4170-a21e-490250a23c6d","name":"RX Hybrid","price":1069.16,"city":"Namwala"},
{"id":"5187ba90-72f7-49bd-b977-0c2523af6fe8","name":"X5","price":865.16,"city":"Soest"},
{"id":"dab5e11e-410f-479c-8edc-d93afe320125","name":"Nitro","price":1241.43,"city":"Wan’an"},
{"id":"d3d82e62-5643-422e-aecf-2369c4ad9c60","name":"Equinox","price":981.27,"city":"Chwaszczyno"},
{"id":"b4188080-3542-4241-83b3-8b80b44041cb","name":"R8","price":947.39,"city":"Malibong East"},
{"id":"e7093b50-538c-4dea-85d4-d97f36d63e46","name":"EX","price":857.39,"city":"Zhovkva"},
{"id":"df07b1c9-6fb0-48a2-8b2e-6ebef7b7eae6","name":"Park Avenue","price":987.92,"city":"Xiling"},
{"id":"32a4d902-57c1-4b19-8aad-fdf997e22b18","name":"525","price":838.45,"city":"Ventersburg"},
{"id":"c2e08ce9-180b-42e2-b76c-16d3a66befbd","name":"Spider","price":901.23,"city":"Shangju"},
{"id":"0246bf3c-8433-43a7-9907-96d070fa9d69","name":"Mustang","price":636.28,"city":"Dve Mogili"},
{"id":"2538b0b7-a2a6-42c1-918c-276da167917b","name":"Firebird Formula","price":1105.34,"city":"Jalal-Abad"},
{"id":"fa57f03f-26d9-460b-aaf6-d6b08211a91e","name":"LX","price":1130.07,"city":"Belle-Anse"},
{"id":"478f53c1-b89c-40a0-82e8-f7ac9e753528","name":"LTD Crown Victoria","price":1300.19,"city":"Mungo"},
{"id":"b5b5d202-8bc0-4efc-aa41-6865c679403b","name":"New Beetle","price":1090.79,"city":"Kiiminki"},
{"id":"ced3682f-8db5-4642-8817-abe82b9afd23","name":"944","price":1366.88,"city":"Cachoeira"},
{"id":"173dae90-8fb2-45f1-9566-ec5a902e530a","name":"Sunbird","price":1178.78,"city":"Hatogaya-honchō"},
{"id":"f681bae2-7903-4670-9149-7a469c9af4bb","name":"LS","price":1111.58,"city":"Hrochův Týnec"},
{"id":"41b5a309-b834-41f5-a3e3-61fbe135d91e","name":"Grand Voyager","price":1121.24,"city":"Morelos"},
{"id":"34bcc6da-85b5-4307-8f58-0483bac76ff2","name":"Cavalier","price":705.89,"city":"Dongxin"},
{"id":"82f9eaf7-cbf4-4021-b422-01bb399afa97","name":"Malibu","price":776.26,"city":"Železniki"},
{"id":"1e59bf7e-646e-414c-aa32-7e40a6847d1b","name":"Sentra","price":883.96,"city":"Masku"},
{"id":"d509f487-1a84-4623-a6d6-9efe96c94c8d","name":"3500 Club Coupe","price":946.92,"city":"Shitan"},
{"id":"21c1a163-caf3-4478-af8c-806a5968d33a","name":"Grand Am","price":1069.78,"city":"Xiexiong"},
{"id":"b9047a2f-ae59-4f8c-b70d-bbdd9238b8ac","name":"3500 Club Coupe","price":1051.42,"city":"Takokak"},
{"id":"8e0d6415-0068-4d46-970c-7f55715a1aa1","name":"Corvette","price":1041.04,"city":"Sosnovka"},
{"id":"a69e128b-f100-45ac-b6e2-0503376db0cb","name":"Escape","price":1088.98,"city":"Murree"},
{"id":"d6c9e839-8012-499f-ab9e-7a5783638f34","name":"Probe","price":1135.02,"city":"Sundawenang"},
{"id":"d694bc42-5697-4c0e-963e-1c6d0b56fa01","name":"Rabbit","price":1204.79,"city":"Ahar"},
{"id":"add76931-0126-43e7-8aa8-37f5fe9e238b","name":"Lumina","price":711.26,"city":"Luzhou"},
{"id":"9d0afe5f-7b88-4a70-a2da-650e3cd08a09","name":"Accord","price":823.72,"city":"Bello"},
{"id":"dd0f9aae-a8f1-4894-8bff-b1bcd15534cc","name":"B-Series Plus","price":933.62,"city":"Kerrobert"},
{"id":"16ff66c6-cb71-4674-ab7c-c3da10419f88","name":"Enclave","price":912.58,"city":"Fuenlabrada"},
{"id":"8b660500-c0d5-4ae1-b1e4-1dd4d55fd7fb","name":"Tempo","price":1010.52,"city":"Rawannawi Village"},
{"id":"a39cf24d-d966-4958-8997-ac5e4a4ea8d9","name":"Corvette","price":1071.78,"city":"Setúbal"},
{"id":"c3b6f183-481d-49dc-8713-93ca4f5c19b7","name":"Fox","price":757.52,"city":"Arboga"},
{"id":"0dde1df9-e108-41c7-8284-ed0172601e40","name":"Tahoe","price":860.97,"city":"Buynichy"},
{"id":"935194b3-13fd-4851-896f-90a36e8f9566","name":"Taurus","price":1201.04,"city":"Wucheng"},
{"id":"7a0502be-2358-4b09-8cb0-4aa33c164b96","name":"Regency","price":1446.77,"city":"Mengeš"},
{"id":"b9be23fd-b370-4638-9ce2-b8606cf79010","name":"Rabbit","price":686.22,"city":"Siemkowice"},
{"id":"37b3c522-89c9-4bf4-9ee3-11221f8e44db","name":"SLX","price":773.37,"city":"Morrito"},
{"id":"4f90045c-5e99-4fc6-a877-d93d9387ec42","name":"CR-V","price":1321.36,"city":"Horvati"},
{"id":"99dcbff5-58fa-4283-9ea5-3530526fa282","name":"X5","price":1092.46,"city":"San Eugenio"},
{"id":"93ce0234-b76e-4839-b0c0-5567f15d5798","name":"914","price":908.76,"city":"Sidi Moussa"},
{"id":"34f32318-adc4-4c69-afd5-6028fa537d4d","name":"Dakota Club","price":1060.32,"city":"Nglego"},
{"id":"ab05bdd3-0598-40d3-b7bc-9701aeafa714","name":"Passport","price":928.93,"city":"Bjelovar"},
{"id":"b9d98a78-04f0-4427-aa57-2af90ff30714","name":"Bravada","price":781.62,"city":"Neikeng"},
{"id":"00c31e18-d0d6-4701-b7e4-a89f03e899de","name":"S90","price":748.54,"city":"Bangan-Oda"},
{"id":"ca5249b2-cb31-4ea4-882a-f373529b9252","name":"Express 1500","price":1110.29,"city":"Arlöv"},
{"id":"21bb30a6-31f6-4e66-9515-a1a682411cba","name":"Endeavor","price":1094.7,"city":"Acandí"},
{"id":"9c625db4-7b3d-4a8e-ad0f-59bab40bc358","name":"Sierra 3500","price":908.68,"city":"Beijie"},
{"id":"7457e044-a742-4799-8d0d-f3547e9257e1","name":"Silverado","price":1162.15,"city":"At-Bashi"},
{"id":"c9660f39-6c03-4636-b63c-8bdf9696127b","name":"A6","price":970.79,"city":"Xihe"},
{"id":"1734dc1d-aa54-4074-bfda-c4c241c851bf","name":"Suburban","price":923.17,"city":"Bangued"},
{"id":"9e5385a9-2449-422c-b8a8-b85f9ff78daa","name":"Sonoma","price":813.23,"city":"Lisia Góra"},
{"id":"d0a4bc2d-69f6-459e-b13a-756d72ba6fb7","name":"Grand Cherokee","price":1245.34,"city":"Summerland"},
{"id":"f95c57b3-cd9f-4d10-9b63-d908031fa4e5","name":"Legacy","price":1106.57,"city":"Mulan"},
{"id":"050f4f3d-7cde-4674-ab9b-60035a6c2b6c","name":"F450","price":844.66,"city":"Ovruch"},
{"id":"15f45cab-711f-4f3d-be7b-cd9887aecc36","name":"V12 Vantage","price":1213.7,"city":"Höfn"},
{"id":"10d87b7e-fcb4-4673-ae63-08a119e0cd16","name":"CR-V","price":677.51,"city":"A’yi Take"},
{"id":"f62488a0-6a59-4a86-9fbe-bdf89b53c46e","name":"Range Rover Sport","price":913.33,"city":"Asquipata"},
{"id":"28a3b36c-919b-4adb-a9f3-67d0149586c4","name":"Solstice","price":1172.65,"city":"Siquirres"},
{"id":"ffc2059b-c6b0-4cde-b2d7-744ff15f5c3f","name":"Expedition EL","price":994.06,"city":"Aktogay"},
{"id":"4868409a-06e6-4f51-946f-ef0c656a033b","name":"Envoy XL","price":1009.48,"city":"Perjuangan"},
{"id":"cb9c2326-c481-4ed9-819e-328bd7ab4fa5","name":"Tahoe","price":969.71,"city":"Kelo"},
{"id":"068cec3f-aff0-44a2-9dad-609ec2bde4dc","name":"Acadia","price":821.02,"city":"Iñapari"},
{"id":"c785d443-887c-4fe0-8aa1-382a277dbc81","name":"Lumina APV","price":976.81,"city":"Rumphi"},
{"id":"aa0657f1-1db9-4c14-b76d-088f09c49d37","name":"Santa Fe","price":741.85,"city":"Baguio"},
{"id":"4ffcec07-42ec-4b26-a2a6-433eac98e523","name":"Ion","price":905.29,"city":"Zhongzhai"},
{"id":"73ccd02a-0d8f-42b2-9d59-98f5ea0fc2fd","name":"CTS-V","price":1106.45,"city":"Maliana"},
{"id":"38571817-f2a6-408f-a93c-76aec37b38fc","name":"Murano","price":1176.22,"city":"Nortelândia"},
{"id":"d40fae8e-c021-4735-a5c9-168a893ed38f","name":"Accent","price":1286.85,"city":"Niederwaldkirchen"},
{"id":"b56aaaea-da0c-4390-a0a3-5a8a97fbea29","name":"Cayman","price":1180.08,"city":"Camplong"},
{"id":"ed3bfb72-0dcc-4d19-bdfa-2021a98fe4f8","name":"Cougar","price":876.37,"city":"Akkol’"},
{"id":"f473deec-eeee-41f4-8a3d-7dc9ee6f59e6","name":"928","price":923.05,"city":"Wola Filipowska"},
{"id":"b7e5b498-abb0-481f-8308-aac5985d0da7","name":"Frontier","price":901.04,"city":"Hanjianglu"},
{"id":"7e238452-da49-4618-aabf-295c12588288","name":"LHS","price":1165.34,"city":"Terang"},
{"id":"f547be19-9e2f-4291-adaf-f50e5eb82a79","name":"Equinox","price":963.25,"city":"Kao Liao"},
{"id":"fddb6a84-9cb8-4aad-9b61-296fa5ceab1e","name":"Sonoma Club","price":1070.26,"city":"Noşratābād"},
{"id":"6777b366-9845-4c13-90d6-4972806088f7","name":"Tercel","price":800.55,"city":"Rusocice"},
{"id":"3a116cf9-e657-4ccf-90c7-bbbbafb3fd3c","name":"F250","price":835.05,"city":"Bragança"},
{"id":"4396ff76-1efd-4607-8d17-0e2b7740722b","name":"Equinox","price":1475.03,"city":"Gręboszów"},
{"id":"c278b6b7-cdd3-405b-bb19-16ce2e5cfce0","name":"Taurus","price":738.55,"city":"Punta Hermosa"},
{"id":"fda3254c-ce56-454e-b8a0-4f9f9e7e9573","name":"W201","price":1402.53,"city":"Yuwan"},
{"id":"47af1e0b-7a81-45b2-bfb5-f4759478e904","name":"1 Series","price":1218.49,"city":"Sosnówka"},
{"id":"0f1d9888-0dd2-4a85-b3ef-11983e8dea0f","name":"TT","price":1037.41,"city":"Aíyira"},
{"id":"ab385284-d211-4c5e-af5d-be71c3f02edb","name":"S60","price":917.71,"city":"Jiangkou"},
{"id":"e1008edd-e415-45b8-837d-51e0f17d9d98","name":"EV1","price":1255.83,"city":"Chaviña"},
{"id":"25baa071-c734-44ac-bd1d-35074b8b0f68","name":"Sentra","price":1315.91,"city":"Shchelkovo"},
{"id":"50d52b4c-8ab6-4d35-99f4-391a3727bb88","name":"Montero","price":979.48,"city":"Chełmiec"},
{"id":"288dd18b-2c1f-46f4-9dc3-df7e6de7cf49","name":"S-Class","price":832.95,"city":"Xiamazhuang"},
{"id":"4ece26ef-cde8-41eb-8929-9df464f52cfc","name":"Sedona","price":622.32,"city":"Dashiqiao"},
{"id":"408e93c0-c4bb-41c4-a933-02657ecec84b","name":"Sienna","price":1324.81,"city":"Lohayong"},
{"id":"43a9909d-a716-42e7-8226-a33aeba8fce9","name":"CLK-Class","price":534.69,"city":"Auriflama"},
{"id":"0b9c9051-31ec-4b75-a1d0-e8e8419e8247","name":"xD","price":695.64,"city":"Uacon"},
{"id":"14c6eb91-7fe5-48b6-80b7-7b05ff2e0428","name":"Highlander","price":795.46,"city":"Pittsburgh"},
{"id":"0976161a-f23a-4a1b-97eb-71b87559b292","name":"Tiburon","price":1222.56,"city":"Niagara Falls"},
{"id":"64e5ae4a-dcfb-4c5b-a629-ff915146bb71","name":"CR-V","price":702.61,"city":"San Diego"},
{"id":"4356db5f-d065-4e3c-9685-f45d6f2d435f","name":"Sierra 1500","price":687.26,"city":"Baixi"},
{"id":"a7086e98-e535-413d-88d4-51269ed386e1","name":"Edge","price":960.01,"city":"Langarūd"},
{"id":"c4ec1b08-094c-4e11-ac92-067da5717e79","name":"RS4","price":1046.83,"city":"Khatanga"},
{"id":"297a40be-80dc-4ce1-8c06-8bb8f2385cbb","name":"SLS AMG","price":1178.31,"city":"Boynton Beach"},
{"id":"357eb102-3df7-48e2-8ded-7d34a6961a6c","name":"IS F","price":1048.97,"city":"Kokkini Trimithia"},
{"id":"6efd4a61-546b-4b1e-8fc8-cb2b51595b50","name":"Continental","price":457.13,"city":"Portela"},
{"id":"6b9da4be-2fcc-4ad1-924d-3ba80c5bfb0f","name":"CX-9","price":942.6,"city":"Omoa"},
{"id":"2ad41b3f-1997-405f-89f2-197ce27d6b81","name":"CTS-V","price":1211.28,"city":"Cajabamba"},
{"id":"95678f32-8dbe-431d-bb82-deb97e529db7","name":"Daewoo Kalos","price":896.25,"city":"Saltsjöbaden"},
{"id":"c23efa91-a865-4280-ad4c-85b8460014b3","name":"Murano","price":956.76,"city":"Binalbagan"},
{"id":"c07910eb-5b12-4b19-a702-dde7299be94a","name":"Carens","price":1215.85,"city":"Odivelas"},
{"id":"0433fee3-16e6-4dfe-a93c-c7545f1f9645","name":"Oasis","price":1022.51,"city":"Nanxinxiang"},
{"id":"5ca4ab06-609f-4f6a-ac10-323069e99be4","name":"Escape","price":1171.12,"city":"Masiga"},
{"id":"da10c4d9-ad8f-4b7d-8e3f-14e4f9e70b77","name":"Leganza","price":1218.86,"city":"Safotulafai"},
{"id":"98ae2e4f-6e21-473b-9b64-2f690f77beff","name":"LR2","price":1075.46,"city":"Topol’noye"},
{"id":"ac5f6a7b-a70f-48d5-94dc-c9b2d933ae89","name":"SL-Class","price":1311.42,"city":"Suchań"},
{"id":"10fc7ffb-f232-499c-ac99-e6d6c28e02b0","name":"57","price":984.02,"city":"Hitiaa"},
{"id":"1b041eed-84f8-425f-b64f-98c95d7fa8c8","name":"M-Class","price":791.45,"city":"Zīrakī"},
{"id":"76906ccb-73c9-4dd5-b522-0df7a5f16bd2","name":"Grand Marquis","price":979.39,"city":"Marićka"},
{"id":"b6f7dff5-65a8-4c43-81ce-0c1b549897b8","name":"Grand Am","price":1247.36,"city":"Aş Şūrah aş Şaghīrah"},
{"id":"f5d9fca9-fc1c-40c5-b855-0fa1b668a8ba","name":"Impreza WRX","price":758.36,"city":"Girey"},
{"id":"a0a49752-5f0c-4957-8959-9913f12308d6","name":"Express 3500","price":1030.11,"city":"Zhangjiang"},
{"id":"fee415ef-5923-4cd6-b173-8f7d9eb380df","name":"750","price":1183.07,"city":"Libochovice"},
{"id":"c406d189-9a66-449e-a287-0445b487de14","name":"Fusion","price":863.01,"city":"Čakovec"},
{"id":"738d9ee6-b236-4672-a0d1-2c4a949abed8","name":"Astro","price":846.91,"city":"Veiga"},
{"id":"046d9171-ef16-4d03-bd9b-dc7e9bdee095","name":"Avenger","price":1029.1,"city":"Batukuta"},
{"id":"89af000d-4f32-47f7-9d27-8ba7db492984","name":"CX-7","price":1056.08,"city":"Ledeč nad Sázavou"},
{"id":"743330e5-263f-45a4-aaeb-83f48c74a45b","name":"H1","price":854.16,"city":"Huaminglou"},
{"id":"801bb859-eeaf-4fa4-b7be-e51d1d76135d","name":"Justy","price":938.04,"city":"Daultāla"},
{"id":"05ef7596-4056-47bd-9214-c5db9663ef01","name":"Verona","price":1206.21,"city":"Ngulakan"},
{"id":"74cbfb93-6307-4a45-b830-e224fd2900d4","name":"Golf","price":858.54,"city":"Xingang"},
{"id":"b9d0f295-1cd5-49d0-a5ec-af7131283d91","name":"Focus","price":1429.31,"city":"Larochette"},
{"id":"1d78b83d-b075-4b7a-bfe1-0317e0e1d89a","name":"Grand Vitara","price":577.43,"city":"Yousheng"},
{"id":"03fa37cf-100c-4278-9be2-be34a7e9800e","name":"Spyder","price":1080.34,"city":"Kotauneng"},
{"id":"7010c1f2-61b8-463a-bd4f-ced72cc7cb3b","name":"GLK-Class","price":663.31,"city":"Diang"},
{"id":"6b9f6c72-7067-4f23-96a1-0a30a6eb6aed","name":"A8","price":952.19,"city":"Koudougou"},
{"id":"7abcd3ac-52e9-4c50-98ee-71b2e168e458","name":"Wrangler","price":1281.84,"city":"Muquiyauyo"},
{"id":"3c6bc667-e1a6-4bf6-8262-43d586ef918b","name":"530","price":861.78,"city":"Yokohama"},
{"id":"f7ecb3ce-68e4-4a49-beb3-4151f034ed7c","name":"Integra","price":719.99,"city":"Bayān"},
{"id":"c57e93e5-1d3b-4dce-a510-9814cfe42fc6","name":"XC90","price":696.11,"city":"Kafir Qala"},
{"id":"613afeea-a274-4704-ad61-1fed82c10ba0","name":"3 Series","price":800.76,"city":"Madur"},
{"id":"9ce96941-e0b2-4bb9-b457-44cc87934c67","name":"LTD","price":791.54,"city":"Nanterre"},
{"id":"13e1f8a7-bd09-4b1f-9047-4a446cf31860","name":"Crown Victoria","price":1417.14,"city":"Guaporé"},
{"id":"0535503f-5043-4fe2-8116-8126b1c93e66","name":"Stratus","price":1105.13,"city":"Zlonice"},
{"id":"3d01c597-3c34-44f3-9687-0878a338a1c5","name":"MX-6","price":898.37,"city":"Fontenay-sous-Bois"},
{"id":"da94e975-4af1-47d9-a8f9-2b5d2822e71d","name":"CLS-Class","price":957.32,"city":"Clermont-Ferrand"},
{"id":"7502a69c-0350-4a76-9f2b-1b3e7b0827ec","name":"LTD Crown Victoria","price":1270.9,"city":"Krzęcin"},
{"id":"ff1eeb59-5bde-42ac-9188-9d358848103b","name":"Express 3500","price":873.8,"city":"Capela"},
{"id":"f934ab0f-f04a-457c-99a6-a0e9dc381747","name":"Azure","price":1043.92,"city":"Baxiangshan"},
{"id":"e3ef4811-c2c8-46b3-b412-b9b3bad0a50f","name":"MX-6","price":1102.24,"city":"Oslo"},
{"id":"711aa306-4914-4fe1-b779-1924a45f7a06","name":"LeSabre","price":756.46,"city":"Đắk Hà"},
{"id":"b250afdc-a9ed-47f4-8ac7-d04e98da5873","name":"325","price":629.66,"city":"Oulad Frej"},
{"id":"ddc5e5e3-5951-4ebe-8cc3-36134f67cc96","name":"323","price":1184.18,"city":"Yabuli"},
{"id":"2c2f8412-61f4-4f78-8c75-429cc0a19138","name":"X6","price":1111.95,"city":"Haicheng"},
{"id":"a80fbc82-423f-4f41-aa81-ebca6369fc3c","name":"FX","price":1190.15,"city":"Mandalt"},
{"id":"bcc6b868-0e4c-47ff-8c01-f1470f895697","name":"Raider","price":966.57,"city":"Hōjō"},
{"id":"db8e81fa-8f51-401c-bdef-73b0ebf3a8ec","name":"Pathfinder","price":708.35,"city":"Nanchoc"},
{"id":"6809db02-012c-4ce1-b78e-b58c706a4996","name":"Malibu","price":1193.2,"city":"Ketampak"},
{"id":"ddd1e21d-b183-4806-ab78-2f64efa23c19","name":"DBS","price":854.02,"city":"Mizoch"},
{"id":"77184739-2074-46af-8b95-92e12cbf29f4","name":"Sable","price":1074.68,"city":"Shorko"},
{"id":"65cfc853-a548-4dfa-a83a-288de938f364","name":"Rally Wagon 2500","price":1176.37,"city":"Raleigh"},
{"id":"685a24ef-2c1e-4a6a-b1df-7dc910a785ab","name":"Bonneville","price":1169.8,"city":"Mariel"},
{"id":"ef3e0c41-7ad7-428d-88cd-74feb173de68","name":"3 Series","price":1126.33,"city":"Lengji"},
{"id":"3e8da4e6-f2a7-4ab2-8b24-6b833cc2f201","name":"Montana","price":923.49,"city":"Astana"},
{"id":"f8126535-9189-4a4d-900a-8cd4da02cc04","name":"Continental Mark VII","price":1193.11,"city":"Shuangta"},
{"id":"e4ea054a-ed1e-4e22-8d49-9d01eb32c8f6","name":"M-Class","price":707.16,"city":"New Hyde Park"},
{"id":"b70ac932-1b76-4cc8-94f8-59c3ca476b93","name":"3500 Club Coupe","price":925.49,"city":"Seattle"},
{"id":"423efa2a-6b9d-496e-95cf-53c54b5863be","name":"Escalade ESV","price":1079.98,"city":"Molchanovo"},
{"id":"40d7ee1e-7ad9-46b3-ab55-edbb7e0f04b2","name":"300SD","price":1266.16,"city":"Leeds"},
{"id":"ac408ba3-d6a2-42b3-ac83-5b5782120927","name":"Vandura G3500","price":1124.5,"city":"Guararé"},
{"id":"09458a57-1aa7-4204-b71d-953297fdb8e4","name":"E-Class","price":1145.82,"city":"Bila"},
{"id":"f62f8a86-4d72-49ad-9ae1-b9bf2838840e","name":"911","price":810.28,"city":"Tingsiqiao"},
{"id":"eb356c62-806b-493c-aa12-bfd999f8c697","name":"Colt","price":866.69,"city":"Garden Grove"},
{"id":"69700a44-b153-41d5-9a1e-5716700a43ba","name":"207","price":1080.28,"city":"Shuanghe"},
{"id":"495819df-ffb5-4854-889b-3798d0924ac8","name":"VUE","price":960.94,"city":"Butterworth"},
{"id":"fe7bcb47-6afd-4067-b272-f03a309d6822","name":"Lynx","price":1109.77,"city":"Carepa"},
{"id":"3940c04f-2a21-4727-a3e6-828d2724cf82","name":"Land Cruiser","price":966.52,"city":"Quintã"},
{"id":"90149124-54bf-47bc-aa2b-90f049c474b1","name":"Tracker","price":707.18,"city":"Hirara"},
{"id":"3ba27b01-a739-4e46-b3d3-cd9ce4c3ec2d","name":"Grand Marquis","price":1157.41,"city":"Terrugem"},
{"id":"4be48900-c728-4209-b16e-cd6591f27370","name":"XL-7","price":1066.33,"city":"Nanjing"},
{"id":"762e8af8-7ad4-42a7-95b5-50e10e702640","name":"XJ","price":789.53,"city":"Landskrona"},
{"id":"f91522f3-45cf-44ee-9f3a-2ae833b3cc7f","name":"Elise","price":753.65,"city":"Chengzhai"},
{"id":"43460a1e-b91c-4b5c-8085-417d82d4f0fb","name":"Ranger","price":879.98,"city":"Otjimbingwe"},
{"id":"455e0963-d379-482e-9ac2-f41db01b5931","name":"Celica","price":712.14,"city":"Gustavia"},
{"id":"b1908b3b-b2e3-426c-ae77-743008308fa4","name":"Cutlass Supreme","price":1014.65,"city":"Ożarowice"},
{"id":"7bdb9305-6f77-4e59-b166-8a9d9acb4b76","name":"Esteem","price":851.2,"city":"Stara Błotnica"},
{"id":"e80f74c4-5d42-4db3-91e6-710cc6a0a0c1","name":"Colt","price":1014.44,"city":"Pueblo Nuevo"},
{"id":"a767a61c-aeb5-4e1d-9359-4a2413e8c1b6","name":"Challenger","price":1058.11,"city":"Changzhi"},
{"id":"2d53d69d-9cde-4aca-89c0-9d9074f63073","name":"LR2","price":1375.99,"city":"Bator"},
{"id":"e4f2c313-eb49-48bc-aaf5-59a3af4939c5","name":"Park Avenue","price":755.34,"city":"Manaloal"},
{"id":"964f0931-4b99-4475-84a8-73a00530293f","name":"Genesis","price":1165.37,"city":"Ōyama"},
{"id":"084f5ae3-3fde-49ae-99e1-d06afbd6d4ff","name":"612 Scaglietti","price":878.51,"city":"Debark’"},
{"id":"fc6bb70f-527b-4e9b-9c15-ea4c9f55dc51","name":"Altima","price":1046.51,"city":"Baojia"},
{"id":"d5256855-cb61-432d-b103-a656f46a9942","name":"GS","price":1188.86,"city":"Bahía Honda"},
{"id":"c9f53917-a72a-4516-b601-68a63b632c15","name":"Town & Country","price":1360.94,"city":"Al Wāsiţah"},
{"id":"39c45e1d-3b65-4809-a790-3fcf41f18931","name":"Sierra 3500","price":975.29,"city":"Dzięgielów"},
{"id":"ed0c8754-b3c3-4cda-940e-110622794ff3","name":"Arnage","price":978.02,"city":"Chenqiao"},
{"id":"d4319afa-86a7-4650-bb8a-68387120eb5d","name":"Cherokee","price":1198.78,"city":"Sentul"},
{"id":"47a1b673-e661-4dc0-ad99-b90be0d55e34","name":"Mirage","price":796.08,"city":"Haizhouwobao"},
{"id":"4ad2937a-c713-47d7-bce5-24da80ba4ce3","name":"XK","price":986.11,"city":"Pará de Minas"},
{"id":"d486ed87-4d96-44ac-aff8-759e106821ba","name":"Ram 2500","price":1238.66,"city":"Pelasgía"},
{"id":"2ad00cca-3d67-49da-a420-b0f790560470","name":"Sentra","price":990.37,"city":"Sigeng"},
{"id":"ebfcc8af-e493-4eea-b13b-8c626344f685","name":"Defender","price":852.15,"city":"Pringgoboyo"},
{"id":"ed773211-b017-434b-a79d-cd1d31c25424","name":"57S","price":1096.36,"city":"Santa Maria"},
{"id":"fe571529-7e34-49a1-9b41-3d0005e66b5d","name":"Land Cruiser","price":815.23,"city":"Stockholm"},
{"id":"bf593bed-770b-4409-8be8-8806bf687c0c","name":"Taurus","price":1041.62,"city":"Naas"},
{"id":"853f3860-24ff-4961-b68b-1905d2ad81d0","name":"Celica","price":1080.93,"city":"Xom Tan Long"},
{"id":"595d9145-b060-4c81-8d7a-52a4ca03e304","name":"LeSabre","price":793.83,"city":"Tawangsari"},
{"id":"195b14c5-aa2f-4a4f-8577-6beb3ae4dab6","name":"Land Cruiser","price":835.66,"city":"Nagiba"},
{"id":"aac06b9b-5ae3-4071-96d7-e9729f83be6e","name":"Element","price":999.09,"city":"Kumane"},
{"id":"9c25ca07-7d08-49c8-9dff-8f4f36bedead","name":"Accord","price":1136.67,"city":"Arevshat"},
{"id":"8ad3972b-66c1-41fd-ac2e-c4bdc948f49e","name":"Tercel","price":989.54,"city":"Al Bilād"},
{"id":"2bc5b0bf-c29c-42f1-894e-20fdfbaba5ef","name":"Suburban 1500","price":1181.48,"city":"Jalinan"},
{"id":"30c61948-3bdb-4db2-a205-bb6375fc9d74","name":"TT","price":768.76,"city":"Ambon"},
{"id":"505d64a6-850e-4269-a978-ba49450963bc","name":"Liberty","price":1042.92,"city":"Porvoo"},
{"id":"dee1e03e-7ccd-49e8-86e5-caf6bc64f0db","name":"Grand Caravan","price":828.66,"city":"Almelo"},
{"id":"a209b7c2-3a6a-47dc-bbb9-281ddd61905b","name":"S60","price":849.48,"city":"Nanmu"},
{"id":"69ef0f3b-60a8-48da-bf8d-b98ab0c62f6a","name":"Town Car","price":984.62,"city":"Acli"},
{"id":"fbce4a6a-40df-4504-ba06-1892dce1404f","name":"Cavalier","price":783.36,"city":"Tangkolo"},
{"id":"9e2d9954-344f-4c3d-8e41-dc1e8ad382e5","name":"Explorer","price":762.2,"city":"Ibirama"},
{"id":"17972f20-2b73-45b3-89b1-38d6bc223a5e","name":"Silverado","price":1064.77,"city":"Banjar Budakeling"},
{"id":"90983950-7ca0-45f7-af46-c2367711e4f7","name":"Classic","price":1156.46,"city":"Wushan"},
{"id":"0760f718-af46-4b34-bef5-835c4bd7bf10","name":"V70","price":1151.64,"city":"Alofi"},
{"id":"09694185-2567-4887-8c24-4ea29385911d","name":"Achieva","price":986.38,"city":"San Juan Sacatepéquez"},
{"id":"07f2db5a-13cd-49cf-9f72-0babc9a1718c","name":"Boxster","price":901.74,"city":"Chlumčany"},
{"id":"7b1723a4-b90e-40ee-9ec0-1681848d184e","name":"Crown Victoria","price":1057.41,"city":"Shuangpu"},
{"id":"1619ce78-b4aa-40ab-a643-21fd2cd31655","name":"Optima","price":914.41,"city":"Akron"},
{"id":"6046abfb-fbbb-497e-8f6c-46b6f01b49e7","name":"3500","price":1165.6,"city":"Daitou"},
{"id":"52e143a0-afff-4d2f-b9eb-12e362528083","name":"Silverado 3500","price":1169.13,"city":"Lima Pampa"},
{"id":"350070ff-24ff-407b-bf63-6b460f663a1a","name":"80","price":1092.9,"city":"Sidem"},
{"id":"566863f0-a885-4a33-aa12-41ab99db683e","name":"Titan","price":1144.61,"city":"Camp Ithier"},
{"id":"cdb6f891-5b6f-4b43-8a69-eb1572c93fa0","name":"Eclipse","price":1100.31,"city":"Margos"},
{"id":"2766e7de-ad85-4f37-9718-f54d8df9e28c","name":"9-5","price":858.8,"city":"Kochani"},
{"id":"c11def04-551a-450b-9e15-ba89f40aa4dd","name":"Intrepid","price":941.1,"city":"Pedro Betancourt"},
{"id":"1c8bbbe4-2bd9-496c-a16e-27bb3af8ec9f","name":"A8","price":1110.8,"city":"Dahao"},
{"id":"1808f215-c80b-40a8-85f5-f1099c4b0d75","name":"Yukon","price":1293.02,"city":"Sañgay"},
{"id":"7e631ff3-a769-44ad-b970-78bbf3c3f6b0","name":"TSX","price":687.07,"city":"Kowala"},
{"id":"81b65f91-9ccf-4d4b-9751-6a36b3782380","name":"Ranger","price":906.54,"city":"Tha Ruea"},
{"id":"99e88808-fe5e-46cf-8b76-c25f8a6ea06a","name":"Patriot","price":970.36,"city":"Paola"},
{"id":"8ea6cbca-6b04-49af-b61a-56d8efb4c8a5","name":"Q","price":788.36,"city":"Novopokrovka"},
{"id":"9730cd20-69b0-441f-856f-6134204186af","name":"XL7","price":1259.07,"city":"Roblin"},
{"id":"f5a31f14-a82d-4241-ac25-5a7c0de30b83","name":"Expedition EL","price":872.57,"city":"Umbultanjung"},
{"id":"673f5abb-d256-49a3-9cb9-2399d52c6862","name":"C-Class","price":1068.69,"city":"Dadiharja"},
{"id":"6baa6def-1edc-4717-a6f5-722d47d367fc","name":"Cirrus","price":759.47,"city":"Ciomas"},
{"id":"957f2926-23bb-4e52-b78d-908dcb049195","name":"Caravan","price":1074.85,"city":"Rado"},
{"id":"3a81ed7b-dbc0-4167-9887-ca62407353e4","name":"Ram 3500","price":1029.29,"city":"Gouménissa"},
{"id":"a0bc7d2c-3db8-4cc8-bb8a-1d20766cda01","name":"Civic","price":1135.97,"city":"Château-Richer"},
{"id":"45f29e70-b116-4702-b3a0-d0a8126d4307","name":"S4","price":1078.28,"city":"Careva Ćuprija"},
{"id":"d07767cb-635f-4d27-adb9-53ee30f0f84e","name":"Xterra","price":1184.19,"city":"Saint-Denis"},
{"id":"568c8a29-f301-4bd6-9dce-8715206c89fc","name":"Q","price":1225.37,"city":"Oslo"},
{"id":"a3a81f15-9cbf-442d-86f0-387aa6f80722","name":"Prowler","price":468.61,"city":"Queniquea"},
{"id":"490f825f-b533-4e3e-82ca-22b8a89599b2","name":"DTS","price":711.36,"city":"Semënovskoye"},
{"id":"4820950c-afcb-436c-a631-83c7ef25ccd4","name":"Mariner","price":1197.92,"city":"Vis"},
{"id":"b1792c3e-4172-405c-90b0-5d27fd1fa496","name":"Swift","price":888.37,"city":"Vista Hermosa"},
{"id":"78ba53f2-52de-453b-a4ef-8d72684f80af","name":"Sentra","price":747.52,"city":"Hương Sơn"},
{"id":"b29da67e-b88f-404b-8035-8f0a37cd4409","name":"Sable","price":1079.14,"city":"Duut"},
{"id":"889769d9-5728-4693-8646-997d9f178f53","name":"Aerostar","price":1094.73,"city":"Dawwār Tīnjah"},
{"id":"bc97a732-5def-48a6-a014-9376f588699d","name":"Bonneville","price":948.79,"city":"Nihommatsu"},
{"id":"f5bf088c-0b75-4806-aec5-30f60d8ee136","name":"LS","price":894.1,"city":"Jamundí"},
{"id":"08f3bfe0-c2e7-407f-9678-1e38360b28f0","name":"Town & Country","price":1049.68,"city":"Libertad"},
{"id":"f6ffe933-165e-4e37-9bd5-e9553a5f0fb7","name":"E350","price":908.95,"city":"Bajingzi"},
{"id":"b1b6bcc4-3f03-44d7-97f8-39b747044447","name":"LS","price":952.62,"city":"Novaya Igirma"},
{"id":"8669543b-fcda-494e-a593-96da658655d5","name":"Continental Super","price":1285.31,"city":"Várzea"},
{"id":"58953a53-d8ab-43ff-b2c4-227fcc1f0d6b","name":"Viper RT/10","price":1038.3,"city":"Holoriang"},
{"id":"60d00eb2-1b06-4879-a7bc-a350f6a224e3","name":"Z3","price":993.1,"city":"Aromashevo"},
{"id":"862e7b3a-1c24-4d31-9c1e-ab2894cbc7aa","name":"V40","price":946.59,"city":"Chorente"},
{"id":"880ccefc-43ea-4f2f-a9a2-1cb4f06a2f91","name":"Colt","price":956.32,"city":"Cisasak"},
{"id":"82247ebe-2b83-4f3c-86f1-e3d586992162","name":"Dakota Club","price":1274.36,"city":"Napoli"},
{"id":"03583fc9-720f-434d-be57-07af67ab4cca","name":"Countach","price":1060.79,"city":"Ciguha Tengah"},
{"id":"999af726-057f-462b-876d-c591e29a6785","name":"Mazda6","price":1192.5,"city":"Antsirabe"},
{"id":"dea7c9ee-bfb8-4184-b905-91064c34f879","name":"M3","price":828.22,"city":"Camarate"},
{"id":"030ad344-a3a8-458f-923a-3c8d9df6968c","name":"Nubira","price":740.49,"city":"Binubusan"},
{"id":"9e333306-ff3b-440e-9843-439805383975","name":"Torrent","price":986.17,"city":"Monze"},
{"id":"5555dec4-06cf-40b1-8b7d-f144aec91be2","name":"Optima","price":609.47,"city":"Lianhe"},
{"id":"d927c140-44b0-4027-9740-dd0acc4e9d96","name":"Sunbird","price":1246.78,"city":"Yunchi"},
{"id":"1d17fd7e-f291-447d-aa14-632e483ccbcf","name":"Insight","price":849.34,"city":"Parys"},
{"id":"fdacdc2b-bc42-4d1b-9e67-a09b3d340c05","name":"4Runner","price":1019.54,"city":"Viking"},
{"id":"fbf8d12b-170a-4ce4-a87b-c992588f96b6","name":"G","price":1051.82,"city":"Spiczyn"},
{"id":"a7ac7f31-dff3-439c-9d20-5e2c257291fa","name":"Envoy XL","price":687.11,"city":"Washington"},
{"id":"2edb8f37-60fb-41b9-a2d5-1dd970c11ff4","name":"Galaxie","price":1263.31,"city":"Mumen"},
{"id":"d55e8040-884e-4ae6-8a8d-a50401dc5993","name":"Silverado 2500","price":1006.63,"city":"Zhongshanlu"},
{"id":"7ecc62c8-2bbf-493f-8519-9b2d639a364c","name":"C-Class","price":786.02,"city":"Alto Barinas"},
{"id":"be2a4fce-3f04-4be7-82de-d1d1e88c87e4","name":"Azure T","price":1147.5,"city":"Três Corações"},
{"id":"cbdb8815-736c-40bf-863e-8f37946f31f6","name":"626","price":1031.55,"city":"Saseel"},
{"id":"5e32b640-dc8e-4572-bcfc-09b781f16d1f","name":"Silverado 3500","price":717.47,"city":"Xiangshui"},
{"id":"ab1a52e1-66ea-4cb2-a9b2-35c4ca68d4ed","name":"S8","price":920.59,"city":"Rio Meão"},
{"id":"d5206c34-d2dc-48cd-aeb0-ff71c45df806","name":"M3","price":1015.45,"city":"Palla"},
{"id":"9b6d07e1-7021-48a6-99d5-5a077d1dab05","name":"Ram","price":1172.68,"city":"Loivos"},
{"id":"4ca027f7-87a9-4ef0-a43f-906218d229ed","name":"Pathfinder","price":1354.0,"city":"Sukaraja"},
{"id":"d0f3c498-cc94-4eb8-8ac4-40b1ffd285a0","name":"Elantra","price":698.65,"city":"Bhisho"},
{"id":"7bbdc7d2-eaa8-42c6-be18-527080a025f2","name":"Impreza","price":852.84,"city":"Zbýšov"},
{"id":"f66856e7-f761-466e-9b63-5a2fc6b56f1b","name":"Outback","price":1048.68,"city":"Debar"},
{"id":"b15569b2-c3bc-46ad-a823-1daad21be5b6","name":"Grand Prix","price":1077.18,"city":"Heilangkou"},
{"id":"e4692c64-aa83-4689-9209-79cf39218e8e","name":"Land Cruiser","price":877.58,"city":"Höshigiyn-Ar"},
{"id":"3175c0a5-cc7d-49d1-b9e1-5422a845a36c","name":"Viper","price":937.4,"city":"Sala"},
{"id":"0c34f941-bc41-458f-a15b-64a16520409c","name":"Savana 3500","price":944.71,"city":"Sadao"},
{"id":"b2fe3f58-bb61-4edb-9cbf-08141aacc1b2","name":"HHR","price":1151.11,"city":"Karis"},
{"id":"4ec4f88d-b294-45f4-bc7e-f346cc116d34","name":"Q7","price":718.2,"city":"Zhangping"},
{"id":"b2816dc1-e6db-4555-85be-3fd8393eb6e2","name":"GT-R","price":893.27,"city":"Rosh Pinna"},
{"id":"1284c420-6c09-4b13-acd3-8bc50e068d59","name":"Safari","price":1345.7,"city":"Carman"},
{"id":"74c17b13-5d54-483f-8840-0f7b2513974c","name":"Aerio","price":1322.96,"city":"Zemlyansk"},
{"id":"1ba0c638-9f10-469f-8f7e-bec962cb4299","name":"Continental Mark VII","price":799.69,"city":"Dongjian"},
{"id":"a4640c69-dc76-4875-8941-684a2a80757c","name":"M5","price":1271.33,"city":"Tianzhou"},
{"id":"74a92fcb-23cc-4ec8-8020-958c70204e1e","name":"F250","price":875.38,"city":"New Mīrpur"},
{"id":"4543a0fe-5025-4db8-b50c-c86958d20b31","name":"Mustang","price":904.4,"city":"Évry"},
{"id":"cf29489a-972a-48cb-ba54-c8816e900aa5","name":"Legacy","price":841.06,"city":"Lagkadás"},
{"id":"837b26af-cc49-4bdf-b4c8-f208b31245d4","name":"Cabriolet","price":1122.33,"city":"Paraíso"},
{"id":"590b8812-a1d7-4665-8357-cb8e47918673","name":"Safari","price":740.02,"city":"Zavety Il’icha"},
{"id":"d4714ce7-af8c-4f23-9805-47321ced6de3","name":"Suburban 2500","price":1196.18,"city":"Libas"},
{"id":"b8bd7f4e-cd90-4899-88b5-85cacb879e3e","name":"Firebird Trans Am","price":1397.15,"city":"Songqiao"},
{"id":"2c92ac87-a796-4e59-94b3-13b24ee9588f","name":"MX-5","price":1172.54,"city":"Igarra"},
{"id":"04b18d69-94d3-42b4-8f09-239c17101d8a","name":"C70","price":1042.71,"city":"Maracaçumé"},
{"id":"db353555-a243-4d17-a84b-8326ef3ecac8","name":"C-Class","price":842.26,"city":"Betim"},
{"id":"d3e76c3d-822b-4e22-b87a-b45e806303f0","name":"Aspire","price":541.99,"city":"Metsavan"},
{"id":"f52e4ba9-00f0-4cd9-ac9d-c990b6c961df","name":"Corolla","price":907.35,"city":"Stepnogorsk"},
{"id":"70c96708-6cbc-4a06-a1a1-ba75112849af","name":"Impreza","price":1013.76,"city":"Bytkiv"},
{"id":"12c81e00-3531-492b-b070-18d0cbb1013e","name":"TSX","price":937.69,"city":"La Paz"},
{"id":"8b707ca8-a0b8-44b3-80f9-719ec2cd2f8e","name":"CR-Z","price":1065.02,"city":"Hongguang"},
{"id":"479dbe3c-b709-4748-a9d2-b5d0797a4ea5","name":"Park Avenue","price":1177.83,"city":"Baoziba"},
{"id":"4e530905-13e5-4141-baae-756215df6425","name":"Tiguan","price":735.06,"city":"Magdalena"},
{"id":"b719e501-13d8-45b3-b0c1-cd84052dded4","name":"Passat","price":1056.31,"city":"Buenos Aires"},
{"id":"08259f03-ad99-40e8-a8f6-470d1b2a5001","name":"E150","price":1128.1,"city":"Samannūd"},
{"id":"616fdb23-e68d-469e-9226-87a67a79ea31","name":"Viper","price":772.52,"city":"Sharïngol"},
{"id":"27569dc7-4f70-4317-b199-675d24c9d0e9","name":"DeVille","price":707.7,"city":"Petiga"},
{"id":"995e461b-e93b-4be1-b945-3599673b19f7","name":"Baja","price":1196.25,"city":"Izhmorskiy"},
{"id":"d9ba395b-4599-43e0-948e-64d0a79615ef","name":"SL-Class","price":935.99,"city":"Ngora"},
{"id":"a430347f-7c6b-4189-b227-2cbd55175c62","name":"Grand Caravan","price":1074.21,"city":"Mġarr"},
{"id":"86a46ea4-be3d-4bc4-977a-49b7fc069ded","name":"Ascender","price":1138.06,"city":"Modis"},
{"id":"1abb9cf8-65d1-466a-b91d-23d31624b801","name":"V70","price":872.61,"city":"Viškovci"},
{"id":"663b3de6-347e-4f2b-a091-1117bd5d9b8b","name":"Bronco","price":642.49,"city":"Reforma"},
{"id":"dbd02c85-db78-4d3e-b3e3-e35692a161c9","name":"Camaro","price":841.58,"city":"Qaţanah"},
{"id":"fce7abe1-babf-43a1-b85d-8639ea77a059","name":"Tucson","price":1010.91,"city":"Irecê"},
{"id":"2c0a1906-7078-447b-bdbb-ef15cf86570e","name":"Tahoe","price":1111.17,"city":"Popovice"},
{"id":"518cf377-ce3d-4e88-baa6-8656b56a0ce8","name":"Dakota Club","price":720.24,"city":"Pires do Rio"},
{"id":"b896b00d-2830-451b-b4f0-954766ca2156","name":"Montana","price":1039.89,"city":"Sonsorol Village"},
{"id":"24ba6865-96d9-441f-87f4-3b3ba62c75e7","name":"Lumina","price":1440.78,"city":"Passal"},
{"id":"3132af66-21b8-4929-9c30-c01bf82c7823","name":"9-7X","price":850.35,"city":"Mayumba"},
{"id":"6d66fa0e-2409-4417-bc7f-93d6c6ea2b85","name":"Sunfire","price":617.75,"city":"Mattaldi"},
{"id":"2871d838-ab6e-4a22-98a2-acc8a22fb2b4","name":"Prius Plug-in","price":907.55,"city":"Cikotok"},
{"id":"acc0f48a-9e84-438a-aa8b-76a0ea017d9a","name":"Tracker","price":965.49,"city":"Bailu"},
{"id":"c8360000-2a4a-4806-9217-4453bc116b8e","name":"Sierra 3500","price":1148.55,"city":"Isla Pucú"},
{"id":"38d39ce7-be8d-41f8-b070-2a5148b9607c","name":"Suburban 1500","price":1128.5,"city":"Isla"},
{"id":"da071069-64aa-411a-85e3-c44a2b195021","name":"Montero","price":1073.54,"city":"Dongtang"},
{"id":"282f038c-2a62-4a25-bf7b-7076d586e9a4","name":"911","price":924.04,"city":"Sabunçu"},
{"id":"f7df70a8-25c9-4faa-9105-a430a3b5f4df","name":"Mighty Max Macro","price":748.19,"city":"Mokil"},
{"id":"eaf282ac-1801-4c26-a8f1-e44ad06826b3","name":"Express 1500","price":880.06,"city":"Aborlan"},
{"id":"39155625-41a7-478b-b468-af1da3e94dc6","name":"Murano","price":1425.57,"city":"Abbotsford"},
{"id":"dab2c470-d502-4ede-a4c3-45e6cdf24afa","name":"Grand Prix","price":832.7,"city":"Barrunchal"},
{"id":"ca5d2814-9648-4ab8-9ccb-8ab6879f2865","name":"7 Series","price":1087.49,"city":"Ierápetra"},
{"id":"ee1700b9-0ef9-4255-9e8a-b8447d06e07c","name":"CL-Class","price":742.26,"city":"Đồi Ngô"},
{"id":"aa15e0fb-0308-4ecd-876c-08dc5e1ed72c","name":"Mirage","price":623.09,"city":"Al Badārī"},
{"id":"653ea5a2-7e46-4d31-a4f5-0e8cb0974663","name":"TrailBlazer","price":802.46,"city":"Wąsosz"},
{"id":"03959b7e-5225-4d9b-ab36-896c5a7cd7b7","name":"F250","price":646.07,"city":"Pittsburgh"},
{"id":"2d4adc00-0f8a-47dd-8866-2f57442a8371","name":"LeSabre","price":1103.5,"city":"Lepoglava"},
{"id":"6f67bc1c-2011-4dcc-b081-d3c63952e76a","name":"TSX","price":832.1,"city":"Chengyang"},
{"id":"eb87ad05-a791-4902-83a9-5c639f27f096","name":"LX","price":1137.4,"city":"Piedra del Águila"},
{"id":"694cc9ab-9b04-457c-a0d8-4a2f1feeabae","name":"Neon","price":773.97,"city":"Sueyoshichō-ninokata"},
{"id":"d65fada8-aacf-46c4-b663-5d8dd7d7f4bb","name":"Frontier","price":1167.05,"city":"Rybí"},
{"id":"cbe7fe82-a9b5-4e9c-a73b-d1cdd449022c","name":"Q7","price":938.6,"city":"Mülheim an der Ruhr"},
{"id":"9f4ffe30-9b12-4cd7-b402-800c1ab39d5c","name":"SJ","price":913.16,"city":"Fukadale"},
{"id":"f1dd284c-8c01-4ab2-99d5-97acbc47269a","name":"LeSabre","price":770.11,"city":"Jimeta"},
{"id":"195436fe-a4bb-4bbc-8b26-decaeafcf056","name":"R-Class","price":1140.66,"city":"Rizhao"},
{"id":"5f67a535-d2d8-4bc3-b508-28c61e34e85f","name":"Canyon","price":1036.17,"city":"Phra Pradaeng"},
{"id":"eafb4406-4e48-472b-8e2c-5e1a7de42f3c","name":"Avalon","price":1085.6,"city":"Bibirevo"},
{"id":"493b0400-98d7-468e-849f-c9e3902af7f0","name":"Trans Sport","price":869.49,"city":"Domartang"},
{"id":"679d018b-a014-495f-aa80-ad66e9a4feff","name":"Precis","price":1124.42,"city":"Samayac"},
{"id":"adc4c9b8-eaed-4e24-93f9-2c30e9c2a167","name":"G-Series G10","price":915.55,"city":"Chão"},
{"id":"272a353d-92a7-4c86-8411-962aa4439a84","name":"Accord","price":1300.09,"city":"Addiet Canna"},
{"id":"1143f6bc-d1cc-489a-8d12-1fe3a4893cf3","name":"xB","price":1177.61,"city":"Dagkar"},
{"id":"880eb7c7-63bc-42a0-8890-04e8e7c37e3c","name":"Fiesta","price":1023.64,"city":"Fosses"},
{"id":"f77bdd8c-9732-4906-935d-bdc6d3745f83","name":"645","price":1016.62,"city":"Derviçian"},
{"id":"ab1b46ae-d734-446f-aee0-3f0331525c6f","name":"Discovery","price":873.15,"city":"Bununu Dass"},
{"id":"2be71a9a-c8d3-4089-a544-67a350e250a2","name":"Alliance","price":1240.52,"city":"Frederiksberg"},
{"id":"4d8ff680-3f1a-4b22-bd00-f630b52363f6","name":"Previa","price":1230.14,"city":"Tarusan"},
{"id":"a8c0dd8a-4775-4d7a-8787-4276398d3b55","name":"DeVille","price":756.59,"city":"Gjegjan"},
{"id":"682adbbc-ea92-41f1-bc43-2ad52f20b111","name":"Camry Hybrid","price":1076.4,"city":"Librazhd"},
{"id":"05cb0596-6438-47b8-a63e-be724e8924c5","name":"E-Series","price":1093.51,"city":"Gumuk Tengah"},
{"id":"8ae38738-ba9f-406a-85b8-8f2f8d650c4f","name":"Focus","price":963.61,"city":"Uyskoye"},
{"id":"1ec422d0-cf32-4795-8303-9acf91925bf4","name":"riolet","price":809.75,"city":"Nanmen"},
{"id":"73766220-cc50-4372-b4d9-a1840ba6b98b","name":"Highlander","price":793.51,"city":"Chornomors’ke"},
{"id":"d064b1db-1f16-4138-ae80-181125992562","name":"GTI","price":1120.09,"city":"Ipatinga"},
{"id":"643482c6-d347-490d-bb25-2e7af82a80ce","name":"Accord Crosstour","price":949.37,"city":"Shancheng"},
{"id":"e18b77c4-3e51-4293-9ad5-39ba6e173c7e","name":"Legacy","price":1088.06,"city":"Bimbo"},
{"id":"5706ce74-b94a-4c44-b06a-4eebe6befc0f","name":"207","price":1062.23,"city":"Pedro Juan Caballero"},
{"id":"eb2f7769-91f1-4524-8127-1f3e51b73926","name":"Regal","price":928.39,"city":"Boljevac"},
{"id":"a83f5eea-6399-4263-aedd-57f212949a93","name":"Corrado","price":1051.26,"city":"Patique"},
{"id":"01035137-1601-476e-95a7-6ca88ddc19aa","name":"GTO","price":1012.47,"city":"Kiamba"},
{"id":"f59708a2-38f1-403b-a7a4-78e7c6a3f9e4","name":"Quest","price":933.2,"city":"Bungereng"},
{"id":"4237a988-7e49-4615-a671-aa58af81ea7a","name":"Mustang","price":1108.08,"city":"Francisco Villa"},
{"id":"192f7cc1-2caa-440d-ad76-0956a6e72fc6","name":"Concorde","price":621.83,"city":"Babakankalong"},
{"id":"246897b5-988d-499f-b7cc-13f7ac9322b0","name":"Explorer","price":498.53,"city":"Pakemitan Dua"},
{"id":"2882edc5-abc7-47ff-b85b-a8cdfe824589","name":"XJ Series","price":1204.51,"city":"Echarate"},
{"id":"b83b8766-17e6-4b08-bd9e-a57075cf8770","name":"CR-X","price":1201.0,"city":"Badovinci"},
{"id":"a1d62a01-1905-4aea-9564-2acac10f28ea","name":"CX-9","price":858.56,"city":"Wanareja"},
{"id":"9c7ced09-d89c-4c9e-bc5b-2911e452c832","name":"Avalon","price":1085.23,"city":"Zhuxi"},
{"id":"1242b036-b0d6-4a13-8640-1688beb8200f","name":"Touareg","price":1266.58,"city":"Jinping"},
{"id":"9b517af5-3d5a-41ab-b068-33ff59c1a28f","name":"Land Cruiser","price":966.98,"city":"Hoorn"},
{"id":"61db0ad2-831e-4902-b022-7bc401ce1b51","name":"MGB","price":867.82,"city":"Kåge"},
{"id":"7cd3682c-06c2-4aeb-80cb-46f51684ae45","name":"Lancer","price":1147.01,"city":"Vagos"},
{"id":"5c00e999-9bd8-4971-a8b7-9299541b6b09","name":"Sable","price":744.99,"city":"Zboriv"},
{"id":"9418a1bd-5adc-4f9b-86dc-d98149e19eae","name":"Corolla","price":1142.28,"city":"Chuangye"},
{"id":"86d4e525-0fe4-4a0d-8834-9184845062c4","name":"Reno","price":878.93,"city":"Krasnaye"},
{"id":"477d2f72-b6eb-460f-b3ac-cdf8fde75c75","name":"Aerio","price":578.99,"city":"Kíti"},
{"id":"7e9d45d4-2cc9-49b8-b84d-5c5b84261fc1","name":"Rio5","price":857.74,"city":"Cikuning"},
{"id":"8d52145d-618c-45ce-a7f5-a39ef116bc49","name":"Caravan","price":889.68,"city":"Bambali"},
{"id":"bb21e6aa-4363-4e8f-8336-40b5822772fc","name":"Elantra","price":1076.65,"city":"Guri-si"},
{"id":"148bee9d-c1da-40cb-b5ef-195f7ebf5260","name":"Focus","price":1256.86,"city":"Madīnat Sittah Uktūbar"},
{"id":"2e9e3c6e-ae72-4348-8afb-ca236063d981","name":"LX","price":1320.84,"city":"Mufushan"},
{"id":"8b5f0be1-8383-4f2b-9863-0bb88003e1e0","name":"Silverado 2500","price":1004.12,"city":"Miandrarivo"},
{"id":"b0f9295f-f811-434d-80ad-1d4a91014173","name":"Range Rover Sport","price":948.43,"city":"Lianran"},
{"id":"6a9fd140-d6b7-4414-9e1e-ff4757ba7945","name":"CTS","price":993.92,"city":"Lypova Dolyna"},
{"id":"35c8b0ee-7886-4df2-b0b6-f29d3070967b","name":"Outback Sport","price":939.6,"city":"Hongqi"},
{"id":"dffc9133-361c-49ef-83a6-fd4962b57c19","name":"Ascender","price":889.63,"city":"Eslāmābād"},
{"id":"48b64f11-b3f7-455b-8139-66164a2885d3","name":"B-Series","price":681.44,"city":"Paris 19"},
{"id":"04205b23-fb40-48b6-bdbb-3f1125da53ec","name":"Camry","price":1017.15,"city":"Tombatu"},
{"id":"3a3a4a92-f085-44fb-a489-69ad3ec10f6c","name":"RX","price":1113.87,"city":"Petropavlovsk"},
{"id":"5701682f-303d-4a4c-9dce-83685995f967","name":"Camaro","price":823.44,"city":"Chengguan"},
{"id":"bd0f1a92-2762-4a84-802a-2394114637a6","name":"LR3","price":739.89,"city":"Perštejn"},
{"id":"44a8c0f9-6564-44ed-b36a-4358b98764f2","name":"Alcyone SVX","price":597.94,"city":"San Agustin"},
{"id":"1ebd06cd-6018-4b2b-a4c7-a982dea4c206","name":"Grand Prix","price":967.56,"city":"Berezna"},
{"id":"e4f545b3-14b2-4369-bfeb-8d138b7f7341","name":"STS","price":909.1,"city":"Welibo"},
{"id":"c884b852-36fb-4171-9ced-03c929e3d004","name":"Rio5","price":794.4,"city":"Krajan"},
{"id":"855e6543-26d2-40b7-9aa0-a3e55c502ad4","name":"Passat","price":800.27,"city":"Lobitos"},
{"id":"f640d042-3f27-4781-acd8-a035cebf1959","name":"Galant","price":1011.71,"city":"Balud"},
{"id":"42ecc7d4-fe40-425a-b9c5-72c903320df9","name":"Envoy","price":1085.14,"city":"Taibai"},
{"id":"bd2b1add-cb53-4cee-b0c7-67d462f6736a","name":"SM","price":764.48,"city":"Pangascasan"},
{"id":"6dc834ef-ee61-4a2c-80e4-462479bbe598","name":"Safari","price":969.65,"city":"Suan Luang"},
{"id":"f9abab2c-c802-43ca-b42b-0d8e95e1cdf7","name":"Cavalier","price":775.15,"city":"Dori"},
{"id":"0e177acf-9d07-4ba6-9b48-014ff97275a9","name":"CTS","price":799.07,"city":"Tajimi"},
{"id":"f18f61b6-4e56-4bd1-88a8-26eaab813fa1","name":"Accord","price":732.73,"city":"Poniatowa"},
{"id":"d89041e7-987e-48b0-a9b5-8db50bd8ef52","name":"4Runner","price":1106.02,"city":"Mosar"},
{"id":"53c37569-3efe-43f1-a0c1-8753c763e926","name":"Typ-1","price":892.2,"city":"Karangkancana"},
{"id":"c1452031-6654-477b-8434-22c939c88d4f","name":"MPV","price":1125.45,"city":"Kristinehamn"},
{"id":"0b839c40-da0e-4afe-9426-ea82308ad215","name":"Maxima","price":1458.09,"city":"Sapele"},
{"id":"754947e6-0f09-40a2-96c3-2b6a6eb8afa0","name":"Celica","price":1217.07,"city":"Santiago De Compostela"},
{"id":"f6d01d52-fcfb-4816-8ffa-ae596b9cb324","name":"Discovery","price":1380.78,"city":"Gose"},
{"id":"0ae1bac2-97a2-4fac-ae5d-49ac3650d870","name":"Thunderbird","price":1313.0,"city":"Rivera"},
{"id":"0780c2ef-eead-43ed-8824-49a77495644f","name":"Mirage","price":756.89,"city":"Pontevedra"},
{"id":"ae072e74-f7c8-43d9-a969-0de64569f229","name":"E-Class","price":780.29,"city":"Arkhaía Kórinthos"},
{"id":"7d0e88b9-4be3-4164-9833-8ccedf970a4e","name":"Soul","price":830.43,"city":"La Cruz"},
{"id":"09274a81-5378-4a63-85ca-ed3e646aba93","name":"LTD Crown Victoria","price":898.52,"city":"Sieradza"},
{"id":"540fada2-91d1-49fe-b915-8428096742ff","name":"Intrigue","price":1234.48,"city":"Saint Paul"},
{"id":"65d8068a-851e-46b0-87f6-c77cc0f11d0c","name":"Intrepid","price":1138.08,"city":"Linköping"},
{"id":"9af8bdf0-111e-4ea8-b5ff-e4bdaff6f0b1","name":"Express 1500","price":984.2,"city":"Dom Pedro"},
{"id":"4d499292-579c-4c30-8a7b-e942ecd36b66","name":"Colorado","price":1019.69,"city":"Quintãs"},
{"id":"c92c618b-e7ee-411f-b658-0658c7825269","name":"Concorde","price":1269.75,"city":"Shiraz"},
{"id":"ef0ea3d8-95a6-4a7f-aeea-dd81677a26d0","name":"Fox","price":1260.87,"city":"Zhourui"},
{"id":"7ff79763-e85b-4d8a-9763-5b16a2ffac2a","name":"100","price":1119.16,"city":"Guagua"},
{"id":"85c16d6a-81af-4513-948a-a95f544285a3","name":"Regal","price":803.11,"city":"Kavadarci"},
{"id":"550ab753-4d60-4983-a7f7-3a88784ebae6","name":"TT","price":1121.55,"city":"Bulan"},
{"id":"8c336d87-5799-4852-927f-1a4a15113dee","name":"Mountaineer","price":579.07,"city":"Pirava"},
{"id":"05f7866f-b7b0-4d0f-811c-1230e76f978d","name":"Miata MX-5","price":990.57,"city":"Tawen Aobao"},
{"id":"b8f188d3-32c5-4993-8410-cc3e68c4ca20","name":"Sequoia","price":1160.45,"city":"Áyios Yeóryios"},
{"id":"93af79cd-243d-40eb-b96c-d0aa654b5683","name":"CLK-Class","price":896.2,"city":"Upton"},
{"id":"917f89f9-fe67-4b38-99d5-480fc34b792a","name":"Thunderbird","price":1085.92,"city":"Cumaná"},
{"id":"5c567972-e08f-4ab4-b5f0-d9109b029fe4","name":"F150","price":867.0,"city":"Panjing"},
{"id":"e6cd676a-3881-449f-9b36-0eb260fe2191","name":"DTS","price":1033.55,"city":"Gachancipá"},
{"id":"0e0cd5b2-6295-4fb2-8a95-160865e4e0a5","name":"Contour","price":827.01,"city":"San Jose"},
{"id":"6fe376e7-f7ef-4901-aa16-5dfed4abd85d","name":"F150","price":1087.89,"city":"Yaopi"},
{"id":"5ddf8702-b531-4d0f-ac7f-d7c645be22e7","name":"Chariot","price":908.58,"city":"Kumbo"},
{"id":"0c76f775-ba98-4067-b52e-0c90685ee9e9","name":"TL","price":1059.1,"city":"Beicheng"},
{"id":"da2860d3-23c9-473d-a4fe-de05a67edd79","name":"Sienna","price":1197.12,"city":"Zhongtong"},
{"id":"f8fed039-23d7-4a6d-896c-2189419a8e58","name":"Tahoe","price":1020.72,"city":"Perushtitsa"},
{"id":"a63152ac-06e5-4d88-950c-a0f32a6acb0e","name":"Grand Voyager","price":1021.47,"city":"Vilarinho das Cambas"},
{"id":"7f94ff3c-a25a-4fab-8aec-02816f122d24","name":"RL","price":653.92,"city":"Fuling"},
{"id":"425292ea-1ed9-4477-9c8d-4cc3aa178241","name":"Seville","price":1338.6,"city":"Humaitá"},
{"id":"e0f702b1-35aa-4e64-b492-d437382ecefc","name":"Esteem","price":1036.85,"city":"Leigongmiao"},
{"id":"948aceed-be8a-4054-80bb-633b51c1aaef","name":"Legacy","price":878.81,"city":"Gostyń"},
{"id":"8a3ba4da-4c54-443f-aca6-1b5d66a0d536","name":"Neon","price":1075.32,"city":"San Jose"},
{"id":"b003384e-530f-4df9-99fa-d8abbba7ceea","name":"S60","price":1268.58,"city":"Jieshui"},
{"id":"84d714e6-6e5d-499a-90ee-995e1ff457dd","name":"Savana 3500","price":842.63,"city":"Zhuji"},
{"id":"077034dc-44dd-4dad-8db7-cacdc4533441","name":"Sierra 3500","price":1096.23,"city":"Sölvesborg"},
{"id":"7bf51720-797f-4eda-a4a4-525370de1d8b","name":"Pilot","price":1417.55,"city":"Nong Chik"},
{"id":"239720d8-5652-466f-9ec0-19a0f6faffd9","name":"Maxima","price":997.35,"city":"Shuanghekou"},
{"id":"05f53c79-d5eb-4144-a8b5-1f4662001918","name":"9-3","price":789.47,"city":"Khlung"},
{"id":"8d783dd3-6656-48cc-820d-f806058a93c1","name":"TL","price":740.24,"city":"Hatton"},
{"id":"17d532db-6a23-4c27-ad53-0c812e385fec","name":"ES","price":977.16,"city":"Pursat"},
{"id":"8642fe83-d17d-457d-adff-24bed551e392","name":"Seville","price":1006.53,"city":"Mulhouse"},
{"id":"3e9d8dd6-2687-4601-87eb-23140b52ff87","name":"Swift","price":1085.86,"city":"Luo’ao"},
{"id":"e7f8e91d-13e1-41cf-b8ed-621c5979129f","name":"Grand Marquis","price":1295.12,"city":"Aleksandrów"},
{"id":"125af122-f1e1-4012-8d91-683de0f089ad","name":"Coupe","price":1092.95,"city":"Norberg"},
{"id":"add2a6d7-15cf-42da-8b64-b9238e999808","name":"Sonata","price":1184.39,"city":"Cennan"},
{"id":"b3c439a2-ab2f-42c9-b64c-c29b8eb68a70","name":"Z3","price":851.41,"city":"Longhua"},
{"id":"2522c7b8-0f6a-40c5-b5bd-b5312a1f7b79","name":"Sonata","price":905.7,"city":"Gostivar"},
{"id":"843a4aee-5b56-4574-981c-4061db4ea652","name":"Highlander","price":769.99,"city":"Mairana"},
{"id":"4d54ea36-8337-49e0-9f29-0f7adad19252","name":"NV1500","price":1087.91,"city":"Ebebiyin"},
{"id":"4da733b8-de3d-4375-9c39-aedef3dce731","name":"4Runner","price":554.57,"city":"Dayuanhuizu"},
{"id":"c4297615-cd3d-4e04-88d6-9fc61e00c0e7","name":"Diamante","price":1211.57,"city":"Klemunan"},
{"id":"cdf71bc7-041e-488c-8bb3-aae38cd6bc57","name":"GTI","price":1131.62,"city":"Sim"},
{"id":"8b52f01e-0ca5-4cba-b110-e758794ebcfc","name":"F-Series","price":683.66,"city":"Pirapora do Bom Jesus"},
{"id":"24512368-f21d-45ce-b780-a7145a309754","name":"LX","price":930.61,"city":"Watsa"},
{"id":"bebf3f5d-65aa-4175-9b09-465d2c40f86c","name":"Rapide","price":919.84,"city":"Skýros"},
{"id":"72430d02-e8d5-4ab1-8299-b219c86afe39","name":"Silverado 1500","price":1268.49,"city":"Hudai"},
{"id":"882330a1-5f50-4f84-9ec4-46e58e848662","name":"CL-Class","price":977.63,"city":"Gambaru"},
{"id":"406b0ff4-dde0-4c9a-b692-47100f6735a3","name":"Mariner","price":942.79,"city":"Rozhdestveno"},
{"id":"a4d6b2aa-0993-4b17-b415-04bb86a5400b","name":"Envoy XL","price":1021.65,"city":"Gotse Delchev"},
{"id":"48b25116-4a21-4eec-ad51-372f8ec06649","name":"Ram","price":1206.44,"city":"Lethem"},
{"id":"90a42b28-9426-4e4a-83bc-8a19b20a0359","name":"VehiCROSS","price":1374.81,"city":"Shuimen"},
{"id":"890704c6-2e02-4728-aa85-b8d87d1808bf","name":"Sentra","price":843.58,"city":"Kuanda"},
{"id":"9196114d-555e-4321-b021-932c650e6adc","name":"Elantra","price":1098.2,"city":"Jati"},
{"id":"22ef3955-7ed0-4909-b354-59d6b8323d4c","name":"Forester","price":923.67,"city":"Darband"},
{"id":"df217a14-dbfc-41ef-aace-0563ab9c1c41","name":"S2000","price":1005.42,"city":"Sirnasari"},
{"id":"db9f899d-57f1-44d6-8ad3-8099c12cc19c","name":"Mountaineer","price":893.21,"city":"Borisovka"},
{"id":"4f723185-699c-4672-ac19-5c03feb25078","name":"MX-5","price":1196.07,"city":"Shaba"},
{"id":"2c281203-d415-4fcf-81a1-131f189792e3","name":"Esprit","price":960.66,"city":"Beilun"},
{"id":"61dfeaeb-2eac-4c6a-8bb5-1a26ab2a4808","name":"GTI","price":1125.45,"city":"Campana"},
{"id":"3c109615-663e-4053-889b-af01debd7087","name":"Seville","price":1063.46,"city":"Tempe"},
{"id":"7c93ac94-d25b-463b-bf61-d105966f82ec","name":"Mustang","price":744.09,"city":"Boussé"},
{"id":"7da4642b-52da-4dd1-b734-f2a327edfb48","name":"Sierra 1500","price":1272.58,"city":"Karpacz"},
{"id":"e4e06cf7-786b-4363-a0b9-198bc2c08b7c","name":"Park Avenue","price":1082.64,"city":"Oyam"},
{"id":"ca0fcb22-9a6b-4ba6-bba4-7151c9ccde46","name":"VUE","price":1065.03,"city":"Dolní Dvořiště"},
{"id":"8beb0dcf-0ea1-4ff1-a8ed-08f3490d45b9","name":"2500","price":1243.99,"city":"Al Mukallā"},
{"id":"07fffb97-b6e1-41c8-b2ab-f31b2c5a17e7","name":"Justy","price":1556.77,"city":"Chistopol’"},
{"id":"8e67b387-4953-42b5-b8f0-c68f1f9d2aa8","name":"Ram 1500 Club","price":1283.88,"city":"Pantang"},
{"id":"255c0e59-e3b9-42bf-9299-9d0dcbc9044c","name":"Escalade ESV","price":987.86,"city":"Brämhult"},
{"id":"81711a4d-0c73-49d7-ab5b-3f74d824405c","name":"Touareg","price":681.24,"city":"Namysłów"},
{"id":"5e40c84c-8ca3-4052-a74c-3015657cbbc5","name":"Dakota","price":1382.78,"city":"Kamphaeng Phet"},
{"id":"6be2acf2-a7dc-406a-9816-99e9f7a55f13","name":"SL-Class","price":965.54,"city":"Glazov"},
{"id":"100f5616-8065-41fc-8bcc-090f8eb39e4c","name":"GT-R","price":949.6,"city":"Shuhe"},
{"id":"111a2ee1-d3a3-422b-97e9-29c0647ab72b","name":"Brat","price":1016.75,"city":"Gangmei"},
{"id":"7146a67d-59d8-4442-8deb-e16e7a287a50","name":"Discovery","price":1208.26,"city":"Amparita"},
{"id":"1ae178a5-7380-4203-b7c7-d78b3b5d1328","name":"Ram 2500","price":741.04,"city":"Salto"},
{"id":"670c2807-0cc1-4890-acc9-c4a7a885dc84","name":"Aura","price":1068.07,"city":"Esperanza"},
{"id":"34ba00e6-719b-48fb-95a5-53793ad439f2","name":"Mustang","price":1142.48,"city":"Boac"},
{"id":"c66e2503-06f5-4543-8cd4-164d4d2a72da","name":"Tempest","price":848.24,"city":"Huolongmen"},
{"id":"be8b37b4-b920-4661-8aaa-efdb225af10d","name":"Carrera GT","price":1015.23,"city":"Thames"},
{"id":"c8e520ea-a02e-41c4-bfbc-50a56be053bf","name":"9-3","price":1196.28,"city":"Patía"},
{"id":"96a95a86-5b47-4896-b1dc-f054c29b56ee","name":"Century","price":1005.82,"city":"Montecillo"},
{"id":"6bfea2b4-37e2-4a98-8007-0f16cd6650a0","name":"Courier","price":1074.1,"city":"Tuhe"},
{"id":"b7e17abf-c67a-4e2d-b051-167e8e9c57c2","name":"Miata MX-5","price":752.72,"city":"Tsuyama"},
{"id":"d7241328-c122-42e8-9db3-94bc3024e109","name":"S2000","price":967.85,"city":"Novyye Cherëmushki"},
{"id":"335410f6-1c84-4910-8693-6b4738212e32","name":"940","price":884.87,"city":"Budva"},
{"id":"13a6d97c-7c20-4327-950f-2a84f582e69a","name":"Pathfinder","price":1056.59,"city":"Sparks"},
{"id":"4995c79e-ee54-419d-bf57-dada314da4a1","name":"6000","price":1134.99,"city":"Cikaludan"},
{"id":"7cb6f87d-cfbb-4308-ae7b-98bc4a8cc4dc","name":"Matrix","price":984.66,"city":"Estrada"},
{"id":"669f5691-fbc5-44f2-bfb8-15a0a79a8276","name":"Escalade ESV","price":1326.39,"city":"A Yun Pa"},
{"id":"b1070b00-246c-4348-9757-ea871eae7759","name":"Grand Am","price":915.42,"city":"Mādabā"},
{"id":"1394fe55-a1ae-4797-b279-b0e64aa889fe","name":"Millenia","price":889.15,"city":"Kapsan-ŭp"},
{"id":"fbc90b8b-e958-44a5-a1ce-5e678c6386a8","name":"Grand Marquis","price":1234.36,"city":"Ryūgasaki"},
{"id":"f3386e9e-8a64-41b5-9453-371483182148","name":"Diablo","price":538.39,"city":"Luojiang"},
{"id":"dac14b52-ecd3-4c9c-9458-b9115f5345bf","name":"V8 Vantage","price":934.05,"city":"Qamdo"},
{"id":"17697f2f-3eaa-447f-8c29-059fc45ecd70","name":"Esperante","price":1180.53,"city":"Karanglo"},
{"id":"2d172531-793b-4729-9385-d32be24a9cf4","name":"Civic","price":1396.6,"city":"Estoril"},
{"id":"d1e436ed-1b13-4692-8173-56ee368ffc2d","name":"Continental Flying Spur","price":866.37,"city":"Klek"},
{"id":"cc8dc5c3-081d-4f8b-867a-f1f5f8f8f60b","name":"Durango","price":792.84,"city":"Szolnok"},
{"id":"2ad4b585-5984-4dec-993f-ffc8b47fdb69","name":"Town Car","price":1079.79,"city":"Waitara"},
{"id":"c6f28a91-16f3-4491-9181-506d9326dc03","name":"SL-Class","price":1133.76,"city":"Banī Khaddāsh"},
{"id":"7c8539f1-d478-4590-88d8-cf4f6a64261d","name":"Montana","price":834.31,"city":"Kombandaru"},
{"id":"435a7938-cb08-4d62-b62a-bc87b64a73ed","name":"Tracker","price":911.96,"city":"Vizal San Pablo"},
{"id":"280fe665-e6dc-40d7-b54f-6d59cb7513d3","name":"Tiburon","price":680.34,"city":"Vannes"},
{"id":"bf6726e7-5e67-4c4c-b020-b00524f71259","name":"Century","price":972.44,"city":"Xijiang"},
{"id":"9495c7c1-eae8-4818-af7d-1052d753737e","name":"G-Series 2500","price":904.91,"city":"Mizhuang"},
{"id":"7f1d1c44-9d46-4818-aa5a-fbd763d63191","name":"Ram 2500 Club","price":1072.94,"city":"Jiangqiao"},
{"id":"f794a10b-9f5a-47dc-ade7-cebf28df05a4","name":"Silverado 3500","price":904.19,"city":"Hotsk"},
{"id":"47d44447-57cf-4737-b060-6d5468fd0115","name":"Yukon","price":816.68,"city":"Pontal"},
{"id":"a632ff57-bd9b-49c2-9b0d-f2545f9a8a0f","name":"Bronco II","price":458.67,"city":"La Rochelle"},
{"id":"e814f653-91b4-4f46-9671-fe01de5f14aa","name":"Spectra","price":944.94,"city":"Sanxing"},
{"id":"d293b541-71ea-4eaf-9617-be785ab5eb85","name":"Grand Marquis","price":959.94,"city":"Boa Vista"},
{"id":"057611ae-bca0-4f7d-b3f2-464124b1dd1b","name":"CX-9","price":973.7,"city":"Konstantinovsk"},
{"id":"63917f06-cc61-46c4-b177-76350df8647a","name":"C-Class","price":1028.28,"city":"Stari Lec"},
{"id":"5beee2c7-4987-4e33-ad87-78125c795aa4","name":"Diablo","price":1018.06,"city":"Wenxian Chengguanzhen"},
{"id":"46d7ba4c-3bb1-4c88-928a-1fe40daa7c92","name":"Bronco","price":760.47,"city":"Hushan"},
{"id":"5fa4585f-d5c6-4b7f-b492-7fecc5054f02","name":"Continental","price":1050.55,"city":"Pahing Pamulihan"},
{"id":"de105031-ae5c-48b2-b73f-357475f3681b","name":"Continental Flying Spur","price":623.86,"city":"Atyrau"},
{"id":"79fc7743-0413-4219-ba31-e57fc4fb1e34","name":"X-Type","price":1096.59,"city":"Arma"},
{"id":"df703bf3-f393-4e55-b06e-3f9d1ed8ef42","name":"Mazda6","price":798.72,"city":"Bourg-en-Bresse"},
{"id":"ba2ea853-8ae6-4932-b9c3-f7059ea47d04","name":"Reno","price":982.68,"city":"Rostokino"},
{"id":"d5f2e128-d38d-4cca-956e-d4dcdd47155d","name":"350Z","price":968.57,"city":"Loanda"},
{"id":"4968320b-62f8-423e-82b5-412cbd32f829","name":"Edge","price":1186.22,"city":"Kashiwa"},
{"id":"fcb03d38-a9be-43ae-ae12-eebc321e7b5c","name":"Diablo","price":1201.16,"city":"Xiamao"},
{"id":"4d3addf7-750e-4b04-9f34-dbcc017a45d6","name":"Defender 90","price":1151.84,"city":"Brataj"},
{"id":"3923ca5d-32e9-43a7-ace2-0d349fcda2d9","name":"Sonoma","price":1286.66,"city":"Sanzhang"},
{"id":"935d927e-b8f3-42dd-9168-53195bfa5ea1","name":"H1","price":1269.99,"city":"Posadas"},
{"id":"eeebaf80-7dab-4ad6-8914-ef223615533b","name":"Shadow","price":1136.25,"city":"Malaga"},
{"id":"f6879891-9d00-41d8-b632-d75645f97f3d","name":"Sorento","price":825.26,"city":"Idalolong"},
{"id":"fb12062a-4488-45a2-b59e-795c8694c1f0","name":"A3","price":1229.8,"city":"Mooirivier"},
{"id":"dfddc673-4567-4513-a5c7-e391c006102b","name":"Tahoe","price":852.95,"city":"Daohe"},
{"id":"7ce619c5-7c09-43d9-9275-104d4ec1e37a","name":"S2000","price":1170.24,"city":"Jinotepe"},
{"id":"def72e6a-d8ac-43b0-a1a8-cb3daddc8a05","name":"Challenger","price":854.99,"city":"Washington"},
{"id":"a890dd89-8815-4792-810e-4d2b5ba52fbe","name":"Grand Am","price":849.14,"city":"Sŭngho 1-tong"},
{"id":"88e65e92-1ccc-433d-b57b-14283bcc8f7a","name":"Evora","price":1392.7,"city":"Huangnihe"},
{"id":"d0f9e830-b2a3-4d70-a45f-2c6f51c21aed","name":"Outback","price":899.99,"city":"Dikhil"},
{"id":"108e8fbb-2748-4885-9f0f-82db6fab50d4","name":"Windstar","price":994.59,"city":"Krajan Bakalan"},
{"id":"ab94f9a2-8142-4774-971a-f0e1498573a6","name":"Quattroporte","price":1017.34,"city":"Unión de Reyes"},
{"id":"05b83633-8d04-4a50-8c34-b81903d92f5e","name":"M","price":763.29,"city":"Hanyū"},
{"id":"a00574ea-b697-4998-90e5-8c4a32d30d82","name":"RSX","price":992.36,"city":"Laoxingchang"},
{"id":"0750833b-f87a-46a5-8442-eb50dd36a4e0","name":"Rio","price":1096.2,"city":"Muramatsu"},
{"id":"0a0e83e0-c2ac-49df-baef-7c7e10f46d8f","name":"Galant","price":1058.09,"city":"Batabanó"},
{"id":"96efcee1-6240-4be9-a61a-61b78240b627","name":"Grand Caravan","price":741.45,"city":"Yag La"},
{"id":"32f6e9d7-7176-48b8-9055-2b372979c6cc","name":"H3","price":997.42,"city":"Nuwara Eliya"},
{"id":"eff318c3-10f5-4f73-9340-ea0186653cdc","name":"Esteem","price":809.36,"city":"Bombardopolis"},
{"id":"be78d7e9-8624-45c1-a23c-32d1cedce509","name":"M Roadster","price":965.22,"city":"Tournavista"},
{"id":"5a968ee6-2e97-44e6-b14c-c398e4a73b7c","name":"Ram 3500","price":603.19,"city":"Louisville"},
{"id":"71082496-1d48-4360-9bc7-a9eb243bfa63","name":"Aveo","price":853.72,"city":"Roi Et"},
{"id":"84709698-a467-4c16-b510-bc4c4d8b60ea","name":"Alero","price":1274.63,"city":"Tumauini"},
{"id":"8bcbad3c-a49c-4fd2-bb32-2d5eb92b1046","name":"Sidekick","price":1202.84,"city":"Mont-Royal"},
{"id":"ac3c10de-8a2e-4b67-bab0-548c81fa2121","name":"tC","price":667.86,"city":"Lyon"},
{"id":"fe270ac9-e2a5-459a-98f0-7a6d8595b717","name":"2500","price":1116.26,"city":"Pau"},
{"id":"fe683b4f-42f3-4168-bc38-f10391975233","name":"Cavalier","price":706.43,"city":"Melgar"},
{"id":"efacf6d9-b0d0-41ff-8d7c-61a4d9052402","name":"Camaro","price":1049.04,"city":"Linshui"},
{"id":"8c989cd4-ce0a-46af-a410-05124778d799","name":"Grand Marquis","price":965.75,"city":"Milano"},
{"id":"633d32df-272f-4fea-a19f-30acac147297","name":"RX","price":783.2,"city":"Luotaping"},
{"id":"806cc3cd-1651-49ee-8c1f-3c05f7e5ffb0","name":"Veyron","price":928.41,"city":"Shawnee Mission"},
{"id":"cff10cf4-5be4-46d1-97c3-64f27db47ee0","name":"Jimmy","price":824.77,"city":"Krandil"},
{"id":"62760cc3-2842-423f-9a4e-68eeb3ac25e3","name":"Envoy","price":942.71,"city":"Haitou"},
{"id":"73829b4c-b22c-4e4a-8633-93a7c9e87e1f","name":"Bonneville","price":1100.94,"city":"Gaotai"},
{"id":"6c156e88-9905-423f-9fbc-40f7c6596a5c","name":"B-Series","price":1117.57,"city":"Kolobovo"},
{"id":"af68eebe-2d35-477e-922b-86c6a382297f","name":"Tribute","price":560.69,"city":"Giyon"},
{"id":"9b0080e7-3ad8-4fbf-9c51-038ed384c3ab","name":"Millenia","price":1250.29,"city":"Äänekoski"},
{"id":"2b27da80-ed53-46b0-9b46-418e873e253c","name":"B-Series Plus","price":965.58,"city":"Lin’an"},
{"id":"f38bc5ce-b9bd-4ada-9550-9c0d054f28c8","name":"M3","price":1069.33,"city":"General Alvear"},
{"id":"054c3a98-4f9d-48f1-a704-b55415031fc1","name":"Tundra","price":1389.49,"city":"Outeiro Seco"},
{"id":"78c821ba-c8a6-483b-b2e5-fb450667f86b","name":"Galant","price":909.96,"city":"El Jem"},
{"id":"d8375f9c-afc9-49f4-b021-5bd41bd6fa93","name":"Accord","price":1121.53,"city":"Połajewo"},
{"id":"a3bf4ffd-fc7e-4680-8ca4-e14c2b4ef37c","name":"Montero Sport","price":871.92,"city":"Anin"},
{"id":"b3c28927-843b-43d2-ba0f-f87b5b2875a7","name":"Corvette","price":1212.48,"city":"Nonohonis"},
{"id":"ece84da6-377a-4990-8280-06dd41e435af","name":"Allroad","price":620.28,"city":"Kuala Terengganu"},
{"id":"7acd320b-ebcf-4045-9a73-ef1537bdb10f","name":"Firebird","price":817.86,"city":"Donskoy"},
{"id":"d2eea8ea-8007-41fc-823d-72096bb55ac1","name":"Galant","price":935.2,"city":"Gabao"},
{"id":"89f21e6d-66a6-4b19-80ab-07c076750642","name":"Xterra","price":668.65,"city":"Naikolan"},
{"id":"3d076fd7-276c-4540-b543-5bf7d0bdcd96","name":"Avalanche 2500","price":899.11,"city":"Kamionka Wielka"},
{"id":"be9dc4cb-ba02-4bf5-8879-95222bd1ab24","name":"Mustang","price":781.4,"city":"Mashan"},
{"id":"915b4db6-f50e-499e-ba2b-85fb7774b024","name":"Golf","price":882.21,"city":"Nijiangping"},
{"id":"81d4a942-50fd-4222-9bfc-864170df1293","name":"Malibu","price":853.31,"city":"Zhonghekou"},
{"id":"b55ac828-bb7d-4986-8eff-306637308f8c","name":"Yukon XL 1500","price":819.09,"city":"Catabola"},
{"id":"ab44765a-3a20-4537-8062-550daedb52c5","name":"8 Series","price":1089.83,"city":"Pytalovo"},
{"id":"fd9c287f-a821-4ec5-b106-d8b92ea917ec","name":"Galaxie","price":1119.63,"city":"Koatas Lao"},
{"id":"d37a8a2a-7ba2-42e6-a778-caa4a8231f0c","name":"5 Series","price":1116.46,"city":"Tqibuli"},
{"id":"482925f3-8312-401c-970b-a0a248f8030a","name":"Corvette","price":841.14,"city":"Vänersborg"},
{"id":"41dbe548-2fdf-4386-b763-3e0cdaf707d3","name":"M-Class","price":1047.14,"city":"Kyaka"},
{"id":"53b1821f-9398-4f00-b579-6fe2b2057581","name":"QX","price":1007.4,"city":"Lanckorona"},
{"id":"1d6f5b97-f998-49f2-b3a6-b96d2dc9db61","name":"Passat","price":880.14,"city":"Shujāābād"},
{"id":"5e686df7-9f8c-40cb-821a-c804e2a506ad","name":"4Runner","price":1104.0,"city":"Vale da Pedra"},
{"id":"2b5799ff-c908-4a16-8ed2-0d96b77cc827","name":"Avalanche 2500","price":765.81,"city":"Daduo"},
{"id":"71c1b139-0ba2-4b20-8ce2-b23e0a5dfc13","name":"911","price":614.12,"city":"Anchau"},
{"id":"9a9852dc-f988-4bfa-bf40-b0a5fe521d98","name":"GS","price":745.21,"city":"Chongwen"},
{"id":"928cc339-9bcb-4f74-b1b3-29a1afe449b7","name":"CX-9","price":1202.49,"city":"Leiden"},
{"id":"9993e038-1717-4681-852f-8e95934a2e0d","name":"Excursion","price":1119.29,"city":"Wakuya"},
{"id":"f8f8222d-4050-4849-8656-22859168bb7e","name":"Avanti","price":1448.32,"city":"Oepuah"},
{"id":"c285a2a5-0c03-4dd5-8e13-e4956d637a24","name":"DB9 Volante","price":865.89,"city":"Xylókastro"},
{"id":"9c6ac8bc-ea03-45e3-8a5f-407fb96a1866","name":"944","price":743.42,"city":"Palpalá"},
{"id":"d70a189b-efc1-4882-b2ea-3b75e33255ce","name":"Mark VIII","price":1095.28,"city":"Ostrówek"},
{"id":"5354df0d-0443-4cd5-870d-1c1d45b6d550","name":"Sky","price":1321.9,"city":"Chadian"},
{"id":"9fe5c5e3-0e0c-4d35-b45c-61bd32617d14","name":"del Sol","price":925.89,"city":"Kebonkalapa"},
{"id":"ccbeedba-cc73-4bda-a542-2306c8df302d","name":"Defender 90","price":902.61,"city":"Bharatpur"},
{"id":"e18fe4da-933c-4d1a-9ea5-8fc5251706bc","name":"NX","price":1197.02,"city":"Challhuahuacho"},
{"id":"845eca80-1ef5-49c0-b197-800ac2196f67","name":"S2000","price":1190.41,"city":"Kampala"},
{"id":"4e7ccc1b-49b1-4c2f-b0d0-d7b1beb27863","name":"CX-5","price":1041.97,"city":"Aisai"},
{"id":"3540a8d9-1262-4079-b1bf-5f072b15416c","name":"Tucson","price":813.56,"city":"Hexiangqiao"},
{"id":"ebc9d107-9de8-4eff-9e4f-e71c36606406","name":"B9 Tribeca","price":1198.29,"city":"Ōmagari"},
{"id":"9df00c27-8f3d-47e2-83ef-4dcee846e592","name":"9-7X","price":1040.66,"city":"Osby"},
{"id":"ef4f0da1-e9c4-4347-8275-e479a27692ef","name":"S-Class","price":675.49,"city":"Žabčice"},
{"id":"b8a75adb-c13a-402b-b105-0f2c056509ae","name":"Silverado 3500","price":1008.48,"city":"Huanglong"},
{"id":"d5116a85-f8dc-42be-aaef-f021e9172e7c","name":"Spirit","price":1261.93,"city":"Huntsville"},
{"id":"b7c90617-1f11-4c03-bcf6-b9eb846292ca","name":"LS","price":1010.36,"city":"Raposos"},
{"id":"5ecea0dc-b62d-4e74-a0f7-2c7d72761e01","name":"SLS-Class","price":1283.56,"city":"Shuiyuan"},
{"id":"f9bf4dd7-1929-412e-907b-922a406f10d3","name":"Acclaim","price":978.95,"city":"Zhaocun"},
{"id":"428a095d-201d-4f9f-b6e1-232e91999975","name":"Quest","price":968.98,"city":"Wutumeiren"}]