{
    "products": [
        {
            "id": 1,
            "name": "Curry Paste - Green Masala",
            "price": "€50,64"
        },
        {
            "id": 2,
            "name": "Juice - Lime",
            "price": "€66,40"
        },
        {
            "id": 3,
            "name": "Crab - Dungeness, Whole, live",
            "price": "€73,21"
        },
        {
            "id": 4,
            "name": "Wine - Alsace Riesling Reserve",
            "price": "€81,49"
        },
        {
            "id": 5,
            "name": "Turkey - Whole, Fresh",
            "price": "€76,73"
        },
        {
            "id": 6,
            "name": "Saskatoon Berries - Frozen",
            "price": "€62,05"
        },
        {
            "id": 7,
            "name": "Flour - Teff",
            "price": "€34,76"
        },
        {
            "id": 8,
            "name": "Wine - Maipo Valle Cabernet",
            "price": "€95,48"
        },
        {
            "id": 9,
            "name": "Juice - Orange",
            "price": "€86,89"
        },
        {
            "id": 10,
            "name": "Oil - Truffle, Black",
            "price": "€73,02"
        }
    ]
}